######################################
#									 #
#		0800002 - Set-up event		 #
# by GG								 #
#									 #
######################################
# HISTORY
# v2 2009_Aug_09
# 2010-Oct-22 FB inserted 800002/2 in the daisy chain between 800131 and 591022
#		hid event effects in 800002/2
# 2010-Nov-06 FB remove jain and ibadi religions
# 2011-feb-14 FB	hide country event calls
# 2011-apr-06 FB restored SVN version to Huddle as Huddle version had many errors
# 2011-apr-06 GG cleaned up a few country flags
# 2011-jun-15 FB removed calls to 591022; merged 591022 setup with 800000
#		temporarily suspended colonial_hub setup pending rewrite
#		added Determine monarch character to 800002
# 2011-aug-12 FB make sure province_religion does not become < 12 (assume province religions are correct at startup)
# 2013-sep-20 GG adapted to EUIV and simplified
#
######################################

country_event = {
	id = setup_event.1
	title = "EVT_AI"
	desc = "EVT_AI"
	picture = MEIOU_AND_TAXES_eventPicture
	
	is_triggered_only = yes
	fire_only_once = yes
	hidden = yes
	
	trigger = {
		NOT = { has_global_flag = meiou_and_taxes_mod_start } # [always = yes] removed to avoid a reset of stuff when loading a save.
	}
	
	immediate = {
		set_global_flag = native_plagues_initialised
		clr_global_flag = native_plagues_abort
		set_variable = { which = v_fifty_year_pulse_counter	value = 1 }
		set_variable = { which = v_two_year_pulse_counter	value = 1 }
	}
	
	option = {
		name = "EVT_AI"
		
		#ENG = {
		#	country_event = { id = POP_startup_events.001 }
		#}
		
		# hundred years' war
		
		every_province = {
			set_province_flag = no_horses_present
		}
		every_province = {
			limit = {
				OR = {
					continent = europe
					continent = southeast_asia
					continent = indian_continent
					continent = east_asia
					continent = central_asia
					continent = north_asia
					continent = mena
					superregion = north_africa_superregion
					region = mali_region
					region = central_africa_region
					area = sokoto_area
					area = east_hausa_area
					province_id = 2910 # Mali
					province_id = 1137 # Jos
					province_id = 2927 # Gongola
					region = west_africa_region
					area = baghena_area
					area = amdo_area
					area = manding_area
					region = somalia_region
					area = northern_swahili_coast_area
					area = central_swahili_coast_area
					region = sudan_region
					region = harar_region
					region = abyssinia_region
				}
				OR = {
					NOT = {
						has_terrain = forest
						has_terrain = highlands
						has_terrain = desert_mountain
						has_terrain = mountain
						has_terrain = jungle
						has_terrain = tundra
						has_terrain = taiga
					}
					AND = {
						continent = europe
						NOT = { superregion = scandinavian_superregion }
						NOT = { region = north_russia_region }
					}
					superregion = japan_superregion
					region = north_anatolia_region
					region = south_anatolia_region
					region = armenia_region
					superregion = central_asia_superregion
					superregion = greater_russia_superregion
					region = west_sahara_region
					region = east_sahara_region
					region = arabia_region
					area = libyan_desert_area
					region = aden_region
					area = manding_area
					province_id = 1137 # Jos
				}
			}
			clr_province_flag = no_horses_present
		}
		
		every_country = {
			if = {
				limit = {
					exists = yes
				}
				cavalry_elephants_flags = yes
			}
			else = {
				set_country_flag = no_cavalry #cleared when they are spawned
			}
		}
		
		if = {
			limit = {
				is_year = 1337
				NOT = { is_year = 1453 }
			}
			set_global_flag = hundred_years_war
		}
		if = {
			limit = {
				is_year = 1356
				NOT = { is_year = 1365 }
				FRA = {
					war_with = ENG
					NOT = { has_country_flag = ruler_prisonner_of_war }
					NOT = { has_country_flag = jean_ransomed }
				}
			}
			FRA = {
				hidden_effect = {
					set_country_flag = ruler_prisonner_of_war
					set_country_flag = jean_prisonner_of_war
					exile_heir_as = heir_pow
					exile_ruler_as = ruler_pow
				}
				define_ruler = {
					regency = yes
					dynasty = "de Valois"
					ADM = 0
					DIP = 0
					MIL = 0
				}
				add_war_exhaustion = 5.5
				capital_scope = {
					kill_units = { who = owner amount = 6 } # Lost most of their army
				}
			}
			ENG = {
				capital_scope = {
					kill_units = { who = owner amount = 20 } # Army should be elsewhere
				}
				4008 = {
					infantry = ENG
					infantry = ENG
					infantry = ENG
					infantry = ENG
					infantry = ENG
					infantry = ENG
					cavalry = ENG
					cavalry = ENG
					cavalry = ENG
					cavalry = ENG
				}
			}
			MNF = {
				capital_scope = {
					infantry = MNF
					cavalry = MNF
				}
			}
			BLO = {
				capital_scope = {
					infantry = BLO
					infantry = BLO
					cavalry = BLO
				}
			}
			GUY = {
				capital_scope = {
					infantry = GUY
					infantry = GUY
					cavalry = GUY
				}
			}
			BUR = {
				capital_scope = {
					infantry = BUR
					cavalry = BUR
				}
			}
			NAV = {
				capital_scope = {
					infantry = NAV
					cavalry = NAV
				}
			}
			if = {
				limit = {
					is_subject_of = FRA
					NOT = { tag = BUR }
				}
				capital_scope = {
					kill_units = { who = owner amount = 1 } # Nerf Vassals
				}
			}
		}
		
		if = {
			limit = {
				is_year = 1356
				NOT = { is_year = 1370 }
				exists = ENR
			}
			CAS = {
				add_disaster_progress = {
					disaster = castilian_civil_war
					value = 100
				}
			}
		}
		
		if = {
			limit = {
				is_year = 1356
				NOT = { is_year = 1370 }
			}
			POL = {
				every_neighbor_country = {
					add_opinion = {
						who = POL
						modifier = casimir_diplomacy
					}
				}
			}
		}
		if = {
			limit = {
				has_dlc = "Cradle of Civilization"
				MAM = { government = mamluk_government }
			}
			MAM = {
				export_to_variable = {
					variable_name = mamluk_dynasty_culture
					value = ruler_culture
				}
			}
		}
		
		every_country = { # Loan sizing
			loan_size = 4
		}
		
		every_country = { # Remove title flags
			clr_country_flag = title_1
			clr_country_flag = title_2
			clr_country_flag = title_3
			clr_country_flag = title_4
			clr_country_flag = title_5
			clr_country_flag = title_6
		}
		
		if = {
			limit = {
				is_year = 1447
				NOT = { is_year = 1450 }
				MLO = { has_country_flag = ambrosian_republic }
			}
			MLO = { change_government = ambrosian_republic }
		}
		
		# every_province = {
		# limit = {
		# OR = {
		# west_africa_region_trigger = yes
		# region = south_africa_region
		# region = australia_region
		# }
		# NOT = { is_empty = yes }
		# NOT = { base_tax = 1 }
		# }
		# add_base_tax = 1
		# add_base_production = 1
		# add_base_manpower = 1
		# }
		# every_province = {
		# limit = {
		# OR = {
		# west_africa_region_trigger = yes
		# region = south_africa_region
		# region = australia_region
		# }
		# NOT = { is_empty = yes }
		# NOT = { base_tax = 1 }
		# }
		# }
		
		VEN = {
			if = {
				limit = {
					is_year = 1356
					NOT = { is_year = 1440 }
				}
				galley = 112
				galley = 112
				galley = 112
				light_ship = 112
				light_ship = 112
				light_ship = 112
				transport = 112
			}
		}
		GEN = {
			if = {
				limit = {
					is_year = 1356
					NOT = { is_year = 1440 }
				}
				galley = 101
				galley = 101
				galley = 101
				light_ship = 101
				light_ship = 101
				light_ship = 101
			}
		}
		ARA = {
			if = {
				limit = {
					is_year = 1356
					NOT = { is_year = 1440 }
				}
				galley = 213
				galley = 213
				galley = 213
				light_ship = 213
				light_ship = 213
				transport = 213
			}
		}
		ENG = {
			if = {
				limit = {
					is_year = 1356
					NOT = { is_year = 1440 }
				}
				transport = 236
				transport = 236
			}
		}
		MFT = {
			if = {
				limit = {
					is_year = 1356
					NOT = { is_year = 1440 }
				}
				infantry = 1377
				infantry = 1377
				cavalry = 1377
			}
		}
		
		if = {
			limit = {
				is_year = 1356
				NOT = { is_year = 1603 }
			}
			246 = {
				add_permanent_province_modifier = {
					name = marches_of_scotland
					duration = -1
				}
			}
			409 = {
				add_permanent_province_modifier = {
					name = marches_of_scotland
					duration = -1
				}
			}
			3337 = {
				add_permanent_province_modifier = {
					name = marches_of_the_south
					duration = -1
				}
			}
			1416 = {
				add_permanent_province_modifier = {
					name = marches_of_the_south
					duration = -1
				}
			}
		}
		if = {
			limit = {
				is_year = 1356
				NOT = { is_year = 1472 }
			}
			241 = {
				add_permanent_province_modifier = {
					name = marches_of_wales
					duration = -1
				}
			}
			242 = {
				add_permanent_province_modifier = {
					name = marches_of_wales
					duration = -1
				}
			}
			1412 = {
				add_permanent_province_modifier = {
					name = marches_of_wales
					duration = -1
				}
			}
			3323 = {
				add_permanent_province_modifier = {
					name = marches_of_wales
					duration = -1
				}
			}
		}
		else_if = {
			limit = {
				is_year = 1472
				NOT = { is_year = 1542 }
			}
			241 = {
				add_permanent_province_modifier = {
					name = council_of_wales
					duration = -1
				}
			}
			242 = {
				add_permanent_province_modifier = {
					name = council_of_wales
					duration = -1
				}
			}
			1412 = {
				add_permanent_province_modifier = {
					name = council_of_wales
					duration = -1
				}
			}
		}
		else_if = {
			limit = {
				is_year = 1542
				NOT = { is_year = 1689 }
			}
			241 = {
				add_permanent_province_modifier = {
					name = laws_in_wales
					duration = -1
				}
			}
			242 = {
				add_permanent_province_modifier = {
					name = laws_in_wales
					duration = -1
				}
			}
			1412 = {
				add_permanent_province_modifier = {
					name = laws_in_wales
					duration = -1
				}
			}
		}
		if = {
			limit = {
				is_year = 1356
				NOT = { is_year = 1399 }
			}
			244 = {
				add_permanent_province_modifier = {
					name = county_palatine
					duration = -1
				}
			}
		}
		else_if = {
			limit = {
				is_year = 1399
			}
			244 = {
				add_permanent_province_modifier = {
					name = county_palatine_reformed
					duration = -1
				}
			}
		}
		if = {
			limit = {
				is_year = 1356
				NOT = { is_year = 1550 }
			}
			238 = {
				add_permanent_province_modifier = {
					name = county_palatine
					duration = -1
				}
			}
		}
		else_if = {
			limit = {
				is_year = 1550
			}
			238 = {
				add_permanent_province_modifier = {
					name = county_palatine_reformed
					duration = -1
				}
			}
		}
		if = {
			limit = {
				is_year = 1356
				NOT = { is_year = 1836 }
			}
			427 = {
				add_permanent_province_modifier = {
					name = county_palatine
					duration = -1
				}
			}
		}
		else_if = {
			limit = {
				is_year = 1836
			}
			427 = {
				add_permanent_province_modifier = {
					name = county_palatine_reformed
					duration = -1
				}
			}
		}
		if = {
			limit = {
				is_year = 1356
				NOT = { is_year = 1472 }
			}
			238 = {
				add_permanent_province_modifier = {
					name = north_of_england
					duration = -1
				}
			}
			244 = {
				add_permanent_province_modifier = {
					name = north_of_england
					duration = -1
				}
			}
			245 = {
				add_permanent_province_modifier = {
					name = north_of_england
					duration = -1
				}
			}
			246 = {
				add_permanent_province_modifier = {
					name = north_of_england
					duration = -1
				}
			}
			409 = {
				add_permanent_province_modifier = {
					name = north_of_england
					duration = -1
				}
			}
		}
		else_if = {
			limit = {
				is_year = 1472
				NOT = { is_year = 1641 }
			}
			238 = {
				add_permanent_province_modifier = {
					name = council_of_north
					duration = -1
				}
			}
			244 = {
				add_permanent_province_modifier = {
					name = council_of_north
					duration = -1
				}
			}
			245 = {
				add_permanent_province_modifier = {
					name = council_of_north
					duration = -1
				}
			}
			246 = {
				add_permanent_province_modifier = {
					name = council_of_north
					duration = -1
				}
			}
			409 = {
				add_permanent_province_modifier = {
					name = council_of_north
					duration = -1
				}
			}
		}
		
		#*** General every_country setup loop
		every_country = {
			# limit = {
			# exists = yes			#just in case (probably redundant)
			# }
			set_country_flag = in_play_at_start
			every_subject_country = {
				limit = {
					NOT = { check_variable = { which = Years_as_Vassal value = 1 } }
					NOT = { is_colonial_nation = yes }
					# NOT = { is_protectorate = yes }
				}
				set_variable = { which = Years_as_Vassal value = 1 }
			}
		}
		
		#######################################################
		# Catholic schism
		#######################################################
		if = {
			limit = {
				exists = AVI
			}
			every_country = {
				limit = {
					NOT = { is_year = 1398 }
					OR = {
						tag = FRA
						tag = BOU
						tag = CHP
						tag = GUY
						tag = NRM
						tag = ORL
						tag = PRO
						tag = TOU
					}
				}
				set_country_flag = support_antipope
			}
			every_country = {
				limit = {
					is_year = 1398
					OR = {
						tag = AVI
						tag = CAS
						tag = ARA
						tag = CYP
						tag = BUR
						tag = SAV
						tag = NAP
						tag = SCO
						tag = SWI
						tag = LUX
						tag = KLE
						tag = FRI
						tag = HOL
						tag = BRB
						tag = HAI
					}
				}
				set_country_flag = support_antipope
			}
			every_country = {
				limit = {
					OR = {
						tag = PAP
						tag = ENG
						tag = DAN
						tag = DEN
						tag = HUN
						tag = NOR
						tag = POL
						tag = MAZ
						tag = SWE
						tag = BOH #The Empire (with exceptions)
						tag = ANH
						tag = ANS
						tag = BAD
						tag = BAV
						tag = BRA
						tag = BRE
						tag = BRU
						tag = MAI
						tag = HES
						tag = LUN
						tag = HAN
						tag = MAG
						tag = SHL
						tag = SLZ
						tag = MUN
						tag = MKL
						tag = SAX
						tag = TEU
						tag = MEI
						tag = POM
						tag = WBG
						tag = TRI
						tag = THU
						tag = WUR
						tag = VEN #Northern Italy
						tag = GEN
						tag = MAN
						tag = MLO
						tag = MOD
						tag = PAR
						tag = PIS
						tag = SIE
						tag = TUS
						tag = CNN #Ireland
						tag = LEI
						tag = MNS
						tag = TYR
					}
				}
				set_country_flag = Roman_Catholic
			}
		}
		#######################################################
		# Automatically discover all lands holy to your religion
		#######################################################
		every_country = {
			limit = {
				religion_group = muslim
			}
			discover_province = 384 # Al Madina
			discover_province = 385 # Makka
			discover_province = 379 # Al Quds
		}
		every_country = {
			limit = {
				religion = shiite
			}
			discover_province = 1330 # Najaf
		}
		every_country = {
			limit = {
				religion = hinduism
			}
			discover_province = 556 # Bundelkhand
		}
		every_country = {
			limit = {
				religion = catholic
			}
			discover_province = 2530 # Roma
		}
		every_country = {
			limit = {
				religion = orthodox
			}
			discover_province = 1402 # Konstantinoupolis
			discover_province = 358 # Al Iskandariyya
			discover_province = 379 # Al Quds
			discover_province = 382 # Dimashq
		}
		every_country = {
			limit = {
				religion = coptic
			}
			discover_province = 358 # Al Iskandariyya
			discover_province = 382 # Dimashq
			discover_province = 410 # Baghdad
		}
		every_country = {
			limit = {
				religion = shinto
			}
			discover_province = 3957 # Shima
		}
		# Clear primitives for non-primitive monarchies
		every_country = {
			limit = {
				is_tribal = no
				primitives = yes
			}
			set_primitive = no
		}
	
		#######################################################
		# Vassal-Overlord Relationship
		#######################################################
		if = {
			limit = {
				NOT = { is_year = 1453 }
				BYZ = { ai = yes }
			}
			if = {
				limit = {
					exists = OTT
					BYZ = { has_country_flag = turkish_guarantee }
				}
				OTT = { create_guarantee = BYZ }
				BYZ = { set_country_flag = turkish_guarantee }
			}
			else_if = {
				limit = {
					exists = TUR
				}
				TUR = { create_guarantee = BYZ }
				BYZ = { set_country_flag = turkish_guarantee }
			}
		}
		
		############################################
		# Configure Horde Forcelimits
		############################################
		#every_country = {
		#	limit = {
		#		OR = {
		#			government = tribal_nomads_steppe
		#			government = tribal_nomads_altaic
		#			government = tribal_nomads_hereditary
		#			government = tribal_nomads
		#		}
		#	}
		#	country_event = { id = horde_mechanic_events.2 }
		#}
		
		###########################################
		# Configure Ostsiedlung starting situation
		###########################################
		
		if = {
			limit = {
				is_year = 1350
				NOT = { is_year = 1440 }
			}
			### Ostsiedlung startet around 1250:
			2847 = {
				set_variable = { which = pv_culture_conversion_progress value = 50 }
				set_province_flag = german_ostsiedlung
			}
			2835 = {
				set_variable = { which = pv_culture_conversion_progress value = 50 }
				set_province_flag = german_ostsiedlung
			}
			2620 = {
				set_variable = { which = pv_culture_conversion_progress value = 50 }
				set_province_flag = german_ostsiedlung
			}
			3742 = {
				set_variable = { which = pv_culture_conversion_progress value = 50 }
				set_province_flag = german_ostsiedlung
			}
			60 = {
				set_variable = { which = pv_culture_conversion_progress value = 50 }
				set_province_flag = german_ostsiedlung
			}
			4002 = {
				set_variable = { which = pv_culture_conversion_progress value = 50 }
				set_province_flag = german_ostsiedlung
			}
			2561 = {
				set_variable = { which = pv_culture_conversion_progress value = 50 }
				set_province_flag = german_ostsiedlung
			}
			1359 = {
				set_variable = { which = pv_culture_conversion_progress value = 30 }
				set_province_flag = german_ostsiedlung
			}
			2633 = {
				set_variable = { which = pv_culture_conversion_progress value = 50 }
				set_province_flag = german_ostsiedlung
			}
			4001 = {
				set_variable = { which = pv_culture_conversion_progress value = 15 }
				set_province_flag = german_ostsiedlung
			}
			4000 = {
				set_variable = { which = pv_culture_conversion_progress value = 15 }
				set_province_flag = german_ostsiedlung
			}
			4003 = {
				set_variable = { which = pv_culture_conversion_progress value = 35 }
				set_province_flag = german_ostsiedlung
			}
			3999 = {
				set_variable = { which = pv_culture_conversion_progress value = 20 }
				set_province_flag = german_ostsiedlung
			}
			2398 = {
				set_variable = { which = pv_culture_conversion_progress value = 30 }
				set_province_flag = german_ostsiedlung
			}
			1278 = {
				set_variable = { which = pv_culture_conversion_progress value = 25 }
				set_province_flag = german_ostsiedlung
			}
			2831 = {
				set_variable = { which = pv_culture_conversion_progress value = 45 }
				set_province_flag = german_ostsiedlung
			}
			
			
			###Ostsiedlung startet around 1300
			
			264 = {
				set_variable = { which = pv_culture_conversion_progress value = 35 }
				set_province_flag = german_ostsiedlung
			}
			2850 = {
				set_variable = { which = pv_culture_conversion_progress value = 20 }
				set_province_flag = german_ostsiedlung
			}
			2849 = {
				set_variable = { which = pv_culture_conversion_progress value = 35 }
				set_province_flag = german_ostsiedlung
			}
			48 = {
				set_variable = { which = pv_culture_conversion_progress value = 35 }
				set_province_flag = german_ostsiedlung
			}
			2845 = {
				set_variable = { which = pv_culture_conversion_progress value = 10 }
				set_province_flag = german_ostsiedlung
			}
			4024 = {
				set_variable = { which = pv_culture_conversion_progress value = 25 }
				set_province_flag = german_ostsiedlung
			}
			41 = {
				set_variable = { which = pv_culture_conversion_progress value = 40 }
				set_province_flag = german_ostsiedlung
			}
			40 = {
				set_variable = { which = pv_culture_conversion_progress value = 25 }
				set_province_flag = german_ostsiedlung
			}
			128 = {
				set_variable = { which = pv_culture_conversion_progress value = 35 }
				set_province_flag = german_ostsiedlung
			}
			269 = {
				set_variable = { which = pv_culture_conversion_progress value = 10 }
				set_province_flag = german_ostsiedlung
			}
		}
	}
}

country_event = { # scenario description event
	id = setup_event.2
	title = "setup_event.2.name"
	desc = "setup_event.2.desc"
	picture = MEIOU_AND_TAXES_eventPicture
	
	is_triggered_only = yes
	
	trigger = {
		ai = no
	}
	
	immediate = {
		if = {
			limit = {
				tag = FRA is_revolution_target = no
			}
			custom_tooltip = royal_french_motto_tooltip
		}
		else_if = {
			limit = {
				tag = FRA is_revolution_target = yes
			}
			custom_tooltip = revolutionary_french_motto_tooltip
		}
		else_if = {
			limit = {
				OR = { tag = ENG tag = GBR }
			}
			custom_tooltip = england_motto_tooltip
		}
		else_if = {
			limit = {
				tag = POR
			}
			custom_tooltip = portuguese_motto_tooltip
		}
		else_if = {
			limit = {
				tag = PRU
			}
			custom_tooltip = prussia_motto_tooltip
		}
		else_if = {
			limit = {
				tag = GRA
			}
			custom_tooltip = granada_motto_tooltip
		}
		else_if = {
			limit = {
				tag = SPA
			}
			custom_tooltip = spain_motto_tooltip
		}
		else_if = {
			limit = {
				tag = EBU
			}
			custom_tooltip = belgian_motto_tooltip
		}
		else_if = {
			limit = {
				tag = NED
			}
			custom_tooltip = dutch_motto_tooltip
		}
		else_if = {
			limit = {
				tag = SWI
			}
			custom_tooltip = swiss_motto_tooltip
		}
		else_if = {
			limit = {
				tag = USA
			}
			custom_tooltip = american_motto_tooltip
		}
		else_if = {
			limit = {
				tag = HAB
			}
			custom_tooltip = austrian_motto_tooltip
		}
		else_if = {
			limit = {
				tag = HAN
			}
			custom_tooltip = hanover_motto_tooltip
		}
		else_if = {
			limit = {
				tag = HOH
			}
			custom_tooltip = hohenzollern_motto_tooltip
		}
		else_if = {
			limit = {
				tag = SCO
			}
			custom_tooltip = scotland_motto_tooltip
		}
		else_if = {
			limit = {
				OR = { tag = POL tag = PLC }
			}
			custom_tooltip = polish_motto_tooltip
		}
		else_if = {
			limit = {
				OR = { tag = DAN tag = DEN }
			}
			custom_tooltip = denmark_motto_tooltip
		}
		else_if = {
			limit = {
				tag = SWE
			}
			custom_tooltip = sweden_motto_tooltip
		}
		else_if = {
			limit = {
				tag = BOH
			}
			custom_tooltip = bohemia_motto_tooltip
		}
		else_if = {
			limit = {
				tag = ROU
			}
			custom_tooltip = roumania_motto_tooltip
		}
		else_if = {
			limit = {
				tag = BUL
			}
			custom_tooltip = bulgaria_motto_tooltip
		}
		hidden_effect = {
#			if = {
#				limit = {
#					tag = VEN
#					ai = no
#				}
#				country_event = { id = venetian_republic.0 days = 3 }
#			}
#			if = {
#				limit = {
#					tag = SWE
#					exists = RSW
#					ai = no
#				}
#				country_event = { id = flavor_swe.4309 days = 3 }
#			}
#			if = {
#				limit = {
#					tag = RSW
#					exists = SWE
#					ai = no
#				}
#				country_event = { id = flavor_swe.4310 days = 3 }
#			}
			if = {
				limit = {
					tag = CAS
					ai = no
					exists = ENR
					NOT = { is_year = 1370 }
					NOT = { has_country_flag = you_were_warned }
				}
				country_event = { id = flavor_spa.6001 days = 3 }
			}
			else_if = {
				limit = {
					government = native_council
					ai = no
				}
				country_event = { id = setup_event.21 days = 3 }
			}
		}
	}
	
	option = {
		name = "setup_event.2.opta"			# "Tell me more"
		country_event = { id = setup_event.101 days = 3 }
	}
	option = {
		name = "setup_event.2.optb"
		trigger = {
			NOT = { government = native_council }
			NOT = { any_owned_province = { region = middle_africa_region } }
		}
		custom_tooltip = "default_setup_tt"
		hidden_effect = {
			set_global_flag = north_amerindian_removed
			set_global_flag = central_african_removed
			country_event = { id = setup_event.23 days = 0 }
			country_event = { id = setup_event.24 days = 0 }
			every_province = {
				limit = {
					is_city = yes
					owner = { government = native_council }
				}
				set_local_autonomy = 0
				remove_core = owner
				cede_province = --- # XXX
				set_province_flag = tribals_control_province
				set_province_flag = no_horses_present
				remove_province_modifier = martial_law
			}
		}
	}
	option = {
		name = "setup_event.2.optc"
		hidden_effect = {
			country_event = { id = setup_event.22 days = 1 }
		}
	}
	option = {
		name = "setup_event.2.optd"
		custom_tooltip = "additional_tags_enabled_tt"
		set_global_flag = additional_tags_enabled
		hidden_effect = {
			country_event = { id = setup_event.22 days = 1 }
		}
	}
	option = {
		name = "setup_event.2.opte"
		custom_tooltip = "extra_tags_enabled_tt"
		set_global_flag = additional_tags_enabled
		set_global_flag = extra_tags_enabled
		hidden_effect = {
			country_event = { id = setup_event.22 days = 1 }
		}
	}
}

country_event = {
	id = setup_event.21
	title = "setup_event.21.name"
	desc = "setup_event.21.desc"
	picture = MEIOU_AND_TAXES_eventPicture
	
	is_triggered_only = yes
	fire_only_once = yes
	
	option = {
		name = "setup_event.21.opta"
	}
}

country_event = {
	id = setup_event.22
	title = "setup_event.22.name"
	desc = "setup_event.22.desc"
	picture = MEIOU_AND_TAXES_eventPicture
	
	is_triggered_only = yes
	fire_only_once = yes
	
	option = {
		name = "setup_event.22.opta"
		trigger = {
			NOT = { government = native_council }
			NOT = { any_owned_province = { region = middle_africa_region } }
		}
		hidden_effect = {
			set_global_flag = north_amerindian_removed
			set_global_flag = central_african_removed
			country_event = { id = setup_event.23 days = 5 }
			country_event = { id = setup_event.24 days = 10 }
			every_province = {
				limit = {
					is_city = yes
					owner = { government = native_council }
				}
				set_local_autonomy = 0
				remove_core = owner
				cede_province = --- # XXX
				set_province_flag = tribals_control_province
				set_province_flag = no_horses_present
				remove_province_modifier = martial_law
			}
		}
	}
	option = {
		name = "setup_event.22.optb"
		trigger = {
			NOT = { government = native_council }
		}
		hidden_effect = {
			set_global_flag = north_amerindian_removed
			country_event = { id = setup_event.23 days = 5 }
		}
	}
	option = {
		name = "setup_event.22.optc"
		trigger = {
			NOT = { any_owned_province = { region = middle_africa_region } }
		}
		hidden_effect = {
			set_global_flag = central_african_removed
			country_event = { id = setup_event.24 days = 10 }
		}
	}
	option = {
		name = "setup_event.22.optd"
	}
}

country_event = {
	id = setup_event.23
	title = "setup_event.23.name"
	desc = "setup_event.23.desc"
	picture = MEIOU_AND_TAXES_eventPicture
	
	is_triggered_only = yes
	fire_only_once = yes
	hidden = yes
	
	option = {
		name = "setup_event.23.opta"
		every_province = {
			limit = {
				is_city = yes
				owner = { government = native_council }
			}
			set_local_autonomy = 0
			remove_core = owner
			cede_province = ---
			set_province_flag = tribals_control_province
			set_province_flag = no_horses_present
			remove_province_modifier = martial_law
		}
	}
}

country_event = {
	id = setup_event.24
	title = "setup_event.24.name"
	desc = "setup_event.24.desc"
	picture = MEIOU_AND_TAXES_eventPicture
	
	is_triggered_only = yes
	fire_only_once = yes
	hidden = yes
	
	option = {
		name = "setup_event.24.opta"
		every_province = {
			limit = {
				is_city = yes
				region = middle_africa_region
			}
			set_local_autonomy = 0
			remove_core = owner
			cede_province = ---
			set_province_flag = tribals_control_province
			set_province_flag = no_horses_present
			remove_province_modifier = martial_law
		}
	}
}

country_event = {
	id = setup_event.101
	title = "setup_event.101.name"
	desc = "setup_event.101.desc"
	picture = MEIOU_AND_TAXES_eventPicture
	
	is_triggered_only = yes
	fire_only_once = yes
	
	option = {
		name = "setup_event.2.optb"
		trigger = {
			NOT = { government = native_council }
			NOT = { any_owned_province = { region = middle_africa_region } }
		}
		custom_tooltip = "default_setup_tt"
		hidden_effect = {
			set_global_flag = north_amerindian_removed
			set_global_flag = central_african_removed
			country_event = { id = setup_event.23 days = 5 }
			country_event = { id = setup_event.24 days = 10 }
			every_province = {
				limit = {
					is_city = yes
					owner = { government = native_council }
				}
				set_local_autonomy = 0
				remove_core = owner
				cede_province = --- # XXX
				set_province_flag = tribals_control_province
				set_province_flag = no_horses_present
				remove_province_modifier = martial_law
			}
		}
	}
	option = {
		name = "setup_event.2.optc"
		hidden_effect = {
			country_event = { id = setup_event.22 days = 1 }
		}
	}
	option = {
		name = "setup_event.2.optd"
		custom_tooltip = "additional_tags_enabled_tt"
		set_global_flag = additional_tags_enabled
		hidden_effect = {
			country_event = { id = setup_event.22 days = 1 }
		}
	}
	option = {
		name = "setup_event.2.opte"
		custom_tooltip = "extra_tags_enabled_tt"
		set_global_flag = additional_tags_enabled
		set_global_flag = extra_tags_enabled
		hidden_effect = {
			country_event = { id = setup_event.22 days = 1 }
		}
	}
}

#country_event = { # delegate global
#	id = setup_event.3
#	title = "EVT_AI"
#	desc = "EVT_AI"
#	picture = MEIOU_AND_TAXES_eventPicture
#
#	fire_only_once = yes
#	
#	mean_time_to_happen = {
#		days = 1
#	}
#	
#	trigger = {
#		tag = TXX
#		NOT = { has_global_flag = meiou_and_taxes_mod_start } # set by setup_event.1
#	}
#	
#	immediate = {
#		set_global_flag = meiou_and_taxes_mod_start
#	}
#	
#	option = {
#		name = "EVT_AI"
#		country_event = { id = setup_event.1 }
#		country_event = { id = dg_conversion.001 }
#	}
#}

# Assign random heirs to nations with unknown historical data on heirs
# written by Jandy
country_event = {
	id = setup_event.4
	title = "EVT_AI"
	desc = "EVT_AI"
	picture = MEIOU_AND_TAXES_eventPicture
	
	hidden = yes
	is_triggered_only = yes
	trigger = {
		government = monarchy
		has_heir = no
		has_regency = no
		is_lesser_in_union = no
		NOT = {
			OR = {
				has_global_flag = 1530_start_date
				has_global_flag = meiou_and_taxes_mod_start
				is_playing_custom_nation = yes
				has_country_modifier = obstacle_succession
				has_country_flag = no_heir
				AND = {
					tag = MOE
					NOT = { ruler_age = 31 } #Morea in 1356
				}
			}
		}
	}
	
	immediate = {
		set_global_flag = meiou_and_taxes_mod_start
	}
	
	option = {
		name = "EVT_AI"
		if = {
			limit = {
				legitimacy = 80
			}
			random_list = {
				15 = {	}
				15 = {
					define_heir = {
						claim = 90
						dynasty = THIS
					}
				}
				10 = {
					define_heir = {
						claim = 90
						dynasty = THIS
						age = 2
					}
				}
				10 = {
					define_heir = {
						claim = 90
						dynasty = THIS
						age = 4
					}
				}
				10 = {
					define_heir = {
						claim = 90
						dynasty = THIS
						age = 6
					}
				}
				10 = {
					define_heir = {
						claim = 90
						dynasty = THIS
						age = 8
					}
				}
				10 = {
					define_heir = {
						claim = 90
						dynasty = THIS
						age = 10
					}
				}
				10 = {
					define_heir = {
						claim = 90
						dynasty = THIS
						age = 12
					}
				}
				10 = {
					define_heir = {
						claim = 90
						dynasty = THIS
						age = 14
					}
				}
			}
		}
		else_if = {
			limit = {
				legitimacy = 60
			}
			random_list = {
				15 = { }
				15 = {
					define_heir = {
						claim = 70
						dynasty = THIS
					}
				}
				10 = {
					define_heir = {
						claim = 70
						dynasty = THIS
						age = 2
					}
				}
				10 = {
					define_heir = {
						claim = 70
						dynasty = THIS
						age = 4
					}
				}
				10 = {
					define_heir = {
						claim = 70
						dynasty = THIS
						age = 6
					}
				}
				10 = {
					define_heir = {
						claim = 70
						dynasty = THIS
						age = 8
					}
				}
				10 = {
					define_heir = {
						claim = 70
						dynasty = THIS
						age = 10
					}
				}
				10 = {
					define_heir = {
						claim = 70
						dynasty = THIS
						age = 12
					}
				}
				10 = {
					define_heir = {
						claim = 70
						dynasty = THIS
						age = 14
					}
				}
			}
		}
		else_if = {
			limit = {
				legitimacy = 40
			}
			random_list = {
				15 = {	}
				15 = {
					define_heir = {
						claim = 50
						dynasty = THIS
					}
				}
				10 = {
					define_heir = {
						claim = 50
						dynasty = THIS
						age = 2
					}
				}
				10 = {
					define_heir = {
						claim = 50
						dynasty = THIS
						age = 4
					}
				}
				10 = {
					define_heir = {
						claim = 50
						dynasty = THIS
						age = 6
					}
				}
				10 = {
					define_heir = {
						claim = 50
						dynasty = THIS
						age = 8
					}
				}
				10 = {
					define_heir = {
						claim = 50
						dynasty = THIS
						age = 10
					}
				}
				10 = {
					define_heir = {
						claim = 50
						dynasty = THIS
						age = 12
					}
				}
				10 = {
					define_heir = {
						claim = 50
						dynasty = THIS
						age = 14
					}
				}
			}
		}
		else = {
			random_list = {
				15 = {}
				15 = {
					define_heir = {
						claim = 30
						dynasty = THIS
					}
				}
				10 = {
					define_heir = {
						claim = 30
						dynasty = THIS
						age = 2
					}
				}
				10 = {
					define_heir = {
						claim = 30
						dynasty = THIS
						age = 4
					}
				}
				10 = {
					define_heir = {
						claim = 30
						dynasty = THIS
						age = 6
					}
				}
				10 = {
					define_heir = {
						claim = 30
						dynasty = THIS
						age = 8
					}
				}
				10 = {
					define_heir = {
						claim = 30
						dynasty = THIS
						age = 10
					}
				}
				10 = {
					define_heir = {
						claim = 30
						dynasty = THIS
						age = 12
					}
				}
				10 = {
					define_heir = {
						claim = 30
						dynasty = THIS
						age = 14
					}
				}
			}
		}
	}
}

country_event = {
	id = setup_event.5
	title = "EVT_AI"
	desc = "EVT_AI"
	picture = MEIOU_AND_TAXES_eventPicture
	
	is_triggered_only = yes
	hidden = yes
	#fire_only_once = yes
	
	trigger = {
		has_global_flag = 1530_start_date
	}
	
	option = {
		name = "EVT_AI"
		add_years_of_income = 0.1
		add_war_exhaustion = -10
	}
}

country_event = {
	id = setup_event.6
	title = "EVT_AI"
	desc = "EVT_AI"
	picture = MEIOU_AND_TAXES_eventPicture
	
	is_triggered_only = yes
	hidden = yes
	fire_only_once = yes
	
	trigger = {
		has_country_flag = otto_nerf_1530
	}
	
	option = {
		name = "EVT_AI"
		clr_country_flag = otto_nerf_1530
		add_manpower = -70
		every_country = {
			every_owned_province = {
				remove_province_modifier = coalition_member
			}
		}
		every_owned_province = {
			remove_claim = OTT
			remove_claim = BYZ
		}
		every_country = {
			every_owned_province = {
				remove_claim = OTT
				remove_claim = BYZ
			}
		}
	}
}

#country_event = {
#	id = setup_event.7
#	title = "EVT_AI"
#	desc = "EVT_AI"
#	picture = MEIOU_AND_TAXES_eventPicture
#
#	is_triggered_only = yes
#	hidden = yes
#	fire_only_once = yes
#	
#	trigger = {
#		has_global_flag = 1530_start_date
#		NOT = { tag = TUR }
#		NOT = { tag = MAM }
#		NOT = { tag = SYR }
#		is_colonial_nation = no
#	}
#	
#	option = {
#		name = "EVT_AI"
#		every_owned_province = {
#			# add_base_manpower = 1
#			# add_base_production = 1
#			# add_base_tax = 1
#		}
#	}
#}

#country_event = {
#	id = setup_event.8
#	title = "SPAIN_1530_startupt"
#	desc = "SPAIN_1530_startupd"
#	picture = EXPLORERS_eventPicture
#
#	is_triggered_only = yes
#	fire_only_once = yes
#	hidden = yes
#	
#	trigger = {
#		has_global_flag = 1530_start_date
#		tag = SPA
#	}
#	
#	option = {
#		name = "SPAIN_1530_startupa"
#		set_country_flag = spanish_start
#	}
#}

#country_event = {
#	id = setup_event.9
#	title = "TUR_1530_startupt"
#	desc = "TUR_1530_startupd"
#	picture = MILITARY_CAMP_eventPicture
#
#	is_triggered_only = yes
#	fire_only_once = yes
#	hidden = yes
#	
#	trigger = {
#		has_global_flag = 1530_start_date
#		tag = TUR
#	}
#	
#	option = {
#		name = "SPAIN_1530_startupa"
#		set_country_flag = turkish_start
#		clr_country_flag = otto_nerf_1530
#		every_country = {
#			every_owned_province = {
#			remove_province_modifier = coalition_member
#			 }
#		 }
#		every_owned_province = {
#			remove_claim = OTT
#			remove_claim = BYZ
#		}
#		every_country = {
#			every_owned_province = {
#				remove_claim = OTT
#				remove_claim = BYZ
#			}
#		}
#	}
#}

country_event = {
	id = setup_event.10
	title = "EVT_AI"
	desc = "EVT_AI"
	picture = MILITARY_CAMP_eventPicture
	
	is_triggered_only = yes
	fire_only_once = yes
	hidden = yes
	
	trigger = {
		NOT = { has_country_flag = vietnamese_civil_war }
		has_global_flag = 1530_start_date
		primary_culture = vietnamese
		NOT = { tag = DAI }
	}
	
	option = {
		name = "SPAIN_1530_startupa"
		set_country_flag = vietnamese_civil_war
		VUU = {
			capital_scope = {
				build_to_forcelimit = {
					infantry = 0.6
					cavalry = 0.3
					artillery = 0.1
				}
			}
			add_treasury = 50
		}
		ANN = {
			capital_scope = {
				build_to_forcelimit = {
					infantry = 0.3
					cavalry = 0.15
					artillery = 0.05
				}
			}
			607 = {
				build_to_forcelimit = {
					infantry = 0.6
					cavalry = 0.3
					artillery = 0.1
				}
			}
			add_treasury = 100
		}
	}
}

country_event = {
	id = setup_event.11
	title = no_localization
	desc = no_localization
	picture = MEIOU_AND_TAXES_eventPicture
	
	hidden = yes
	is_triggered_only = yes
	
	trigger = {
		always = yes
	}
	
	immediate = {
		clr_global_flag = multiplayer
		
		if = {
			limit = {
				calc_true_if = {
					all_country = {
						ai = no
					}
					
					amount = 2
				}
			}
			
			set_global_flag = multiplayer
		}
	}
	
	option = {
		name = no_localization
	}
}

country_event = {
	id = setup_event.13
	title = "EVT_AI"
	desc = "EVT_AI"
	picture = MEIOU_AND_TAXES_eventPicture
	
	is_triggered_only = yes
	hidden = yes
	
	immediate = {
		every_country = {
			limit = {
				exists = yes
			}
			check_centralisation_absolutism = yes
		}
		every_province = {
			limit = {
				is_city = yes
			}
			initial_autonomy_effect = yes
			base_autonomy_effect = yes
			centralisation_autonomy_effect = yes
			
			estate_autonomy_no_init_effect = yes
			CE_autonomy_effect = yes
			
			sum_autonomy_effect = yes
			
			starting_autonomy_effect = yes
			
			final_autonomy_effect = yes
		}
	}
	
	option = {
		name = "EVT_AI"
		ai_chance = { factor = 100 }
	}
}

country_event = { # for testing for every country
	id = setup_event.14
	title = "EVT_AI"
	desc = "EVT_AI"
	picture = MEIOU_AND_TAXES_eventPicture
	
	is_triggered_only = yes
	hidden = yes
	
	immediate = {
		every_country = {
			limit = {
				exists = yes
			}
			check_centralisation_absolutism = yes
		}
		every_province = {
			limit = {
				is_city = yes
			}
			initial_autonomy_effect = yes
			base_autonomy_effect = yes
			centralisation_autonomy_effect = yes
			
			estate_autonomy_init_effect = yes
			POP_autonomy_effect = yes
			CE_autonomy_effect = yes
			
			sum_autonomy_effect = yes
			
			#starting_autonomy_effect = yes
			
			final_autonomy_effect = yes
		}
	}
	
	option = {
		name = "EVT_AI"
		ai_chance = { factor = 100 }
	}
}

country_event = { # for testing for 1 country
	id = setup_event.15
	title = "EVT_AI"
	desc = "EVT_AI"
	picture = MEIOU_AND_TAXES_eventPicture
	
	is_triggered_only = yes
	hidden = yes
	
	immediate = {
		check_centralisation_absolutism = yes
		every_owned_province = {
			limit = {
				is_city = yes
			}
			initial_autonomy_effect = yes
			base_autonomy_effect = yes
			centralisation_autonomy_effect = yes
			
			estate_autonomy_init_effect = yes
			POP_autonomy_effect = yes
			CE_autonomy_effect = yes
			
			sum_autonomy_effect = yes
			
			#starting_autonomy_effect = yes
			
			final_autonomy_effect = yes
		}
	}
	
	option = {
		name = "EVT_AI"
		ai_chance = { factor = 100 }
	}
}

country_event = {
	id = setup_event.300
	title = startup_warning_t
	desc = startup_warning_d
	picture = MEIOU_AND_TAXES_eventPicture
	
	is_triggered_only = yes
	
	option = {
		name = "startup_warning_o"
	}
}