### Pope asks an catholic country to send missionaries to the Canary Islands
country_event = {
	id = canarias.1
	
	title = "canarias.1EVTNAME"
	desc = "canarias.1EVTDESC"
	
	picture = SIEGE_eventPicture
	
	trigger = {
		tag = PAP
		NOT = { has_country_flag = asked_canarias_mission_pap }
		exists = CNA
		NOT = { CNA = { religion = catholic } }
		NOT = { CNA = { overlord = { religion = catholic } } }
		NOT = { CNA = { has_country_flag = canarias_mission_received } }
		NOT = { CNA = { has_country_flag = canarias_conquista_arrived } }
	}
	
	mean_time_to_happen = {
		months = 12
		
		modifier = {
			factor = 0.9
			2751 = {
				check_variable = { which = "catholic" value = 2 }
			}
		}
		modifier = {
			factor = 0.8
			2751 = {
				check_variable = { which = "catholic" value = 4 }
			}
		}
		modifier = {
			factor = 0.7
			2751 = {
				check_variable = { which = "catholic" value = 6 }
			}
		}
		modifier = {
			factor = 0.6
			2751 = {
				check_variable = { which = "catholic" value = 8 }
			}
		}
		modifier = {
			factor = 0.5
			2751 = {
				check_variable = { which = "catholic" value = 10 }
			}
		}
		modifier = {
			factor = 0.9
			366 = {
				check_variable = { which = "catholic" value = 2 }
			}
		}
		modifier = {
			factor = 0.8
			366 = {
				check_variable = { which = "catholic" value = 4 }
			}
		}
		modifier = {
			factor = 0.7
			366 = {
				check_variable = { which = "catholic" value = 6 }
			}
		}
		modifier = {
			factor = 0.6
			366 = {
				check_variable = { which = "catholic" value = 8 }
			}
		}
		modifier = {
			factor = 0.5
			366 = {
				check_variable = { which = "catholic" value = 10 }
			}
		}
	}
	
	option = {
		name = "canarias.1a"
		set_country_flag = asked_canarias_mission_pap
	}
}

### Country receives a letter from the Pope
country_event = {
	id = canarias.2
	
	title = "canarias.2EVTNAME"
	desc = "canarias.2EVTDESC"
	
	picture = SIEGE_eventPicture
	
	trigger = {
		PAP = {
			has_country_flag = asked_canarias_mission_pap
		}
		NOT = { CNA = { has_country_flag = canarias_mission_received } }
		NOT = { CNA = { has_country_flag = canarias_conquista_arrived } }
		religion = catholic
		is_free_or_tributary_trigger = yes
		OR = {
			capital_scope = {
				OR = {
					region = aragon_region
					region = castille_region
					region = leon_region
					region = andalucia_region
					region = portugal_region
				}
			}
			AND = {
				tag = FRA
				has_global_flag = hundred_years_war_FRA_win
				NOT = { is_year = 1380 }
			}
			AND = {
				capital_scope = {
					superregion = italy_superregion
				}
				monthly_income = 10
				num_of_ports = 1
			}
		}
	}
	
	mean_time_to_happen = {
		years = 10
		
		modifier = {
			factor = 0.25
			owns = 333 # Mallorca
			owns = 2358 # Menorca
			NOT = { tag = ARA }
			NOT = { has_country_flag = declined_canarias_mission }
		}
		modifier = {
			factor = 0.25
			tag = ARA
			NOT = { has_country_flag = declined_canarias_mission }
		}
		modifier = {
			factor = 0.25
			tag = CAS
			NOT = { has_country_flag = declined_canarias_mission }
		}
		modifier = {
			factor = 0.25
			tag = POR
			NOT = { has_country_flag = declined_canarias_mission }
		}
		modifier = {
			factor = 0.25
			OR = {
				tag = GEN
				tag = VEN
			}
			NOT = { has_country_flag = declined_canarias_mission }
		}
		modifier = {
			factor = 0.25
			tag = FRA
			has_global_flag = hundred_years_war_FRA_win
			NOT = { has_country_flag = declined_canarias_mission }
		}
		modifier = {
			factor = 0.25
			tag = ARA
			333 = {
				owner = {
					owns = 2358 # Menorca
					NOT = { tag = ARA }
					has_country_flag = declined_canarias_mission
				}
			}
		}
		modifier = {
			factor = 0.25
			tag = CAS
			ARA = {
				has_country_flag = declined_canarias_mission
			}
		}
		modifier = {
			factor = 0.25
			tag = POR
			CAS = {
				has_country_flag = declined_canarias_mission
			}
		}
		modifier = {
			factor = 0.25
			OR = {
				tag = GEN
				tag = VEN
			}
			POR = {
				has_country_flag = declined_canarias_mission
			}
		}
		modifier = {
			factor = 0.25
			tag = FRA
			GEN = {
				has_country_flag = declined_canarias_mission
			}
			VEN = {
				has_country_flag = declined_canarias_mission
			}
		}
		modifier = {
			factor = 1.1
			capital_scope = {
				superregion = italy_superregion
			}
			NOT = { tag = GEN }
			NOT = { tag = VEN }
		}
		modifier = {
			factor = 0.9
			check_variable = { which = "canarias_points" value = 1 }
		}
		modifier = {
			factor = 0.9
			check_variable = { which = "canarias_points" value = 2 }
		}
		modifier = {
			factor = 0.9
			check_variable = { which = "canarias_points" value = 3 }
		}
		modifier = {
			factor = 0.9
			check_variable = { which = "canarias_points" value = 4 }
		}
		modifier = {
			factor = 0.9
			check_variable = { which = "canarias_points" value = 5 }
		}
		modifier = {
			factor = 0.9
			check_variable = { which = "canarias_points" value = 6 }
		}
		modifier = {
			factor = 0.9
			check_variable = { which = "canarias_points" value = 7 }
		}
		modifier = {
			factor = 0.9
			check_variable = { which = "canarias_points" value = 8 }
		}
		modifier = {
			factor = 0.9
			check_variable = { which = "canarias_points" value = 9 }
		}
		modifier = {
			factor = 0.9
			check_variable = { which = "canarias_points" value = 10 }
		}
		modifier = {
			factor = 2
			is_at_war = yes
		}
	}
	
	option = {
		name = "canarias.2a"
		ai_chance = {
			factor = 90
		}
		add_treasury = -50 ## How much? Static? Scaling?
		set_country_flag = canarias_mission_send
		add_country_modifier = {
			name = "canarias_mission_modifier"
			duration = 1825
		}
		CNA = {
			country_event = { id = canarias.3 days = 30 random = 15 }
			set_country_flag = canarias_mission_received
		}
		PAP = {
			clr_country_flag = asked_canarias_mission_pap
		}
	}
	option = {
		name = "canarias.2b"
		ai_chance = {
			factor = 10
			
			modifier = {
				factor = 3
				NOT = { treasury = 50 }
			}
			modifier = {
				factor = 3
				num_of_loans = 1
			}
			modifier = {
				factor = 3
				num_of_loans = 5
			}
			modifier = {
				factor = 3
				num_of_loans = 10
			}
		}
		set_country_flag = declined_canarias_mission
	}
}

### Notification for CNA
country_event = {
	id = canarias.3
	
	title = "canarias.3EVTNAME"
	desc = "canarias.3EVTDESC"
	
	picture = SIEGE_eventPicture
	
	is_triggered_only = yes
	
	option = {
		name = "canarias.3a" #Ok
		ai_chance = {
			factor = 50
		}
		random_owned_province = {
			limit = {
				NOT = { religion = catholic }
			}
			add_province_modifier = { name = heretic_missionary duration = 1825 }
			set_province_flag = canarias_missionary_flag
		}
	}
	option = {
		name = "canarias.3b" # Decline entry
		ai_chance = {
			factor = 50
		}
		FROM = {
			country_event = { id = canarias.28 days = 30 random = 15 }
		}
	}
}

#### Mission successful
country_event = {
	id = canarias.4
	
	title = "canarias.4EVTNAME"
	desc = "canarias.4EVTDESC"
	
	picture = SIEGE_eventPicture
	
	trigger = {
		has_country_flag = canarias_mission_send
		NOT = { has_country_modifier = canarias_mission_modifier }
	}
	
	mean_time_to_happen = { months = 1 }
	
	option = {
		name = "canarias.4a"
		clr_country_flag = canarias_mission_send
		add_prestige = 2
		change_variable = { which = "canarias_points" value = 1 }
		CNA = {
			country_event = { id = canarias.26 }
			clr_country_flag = canarias_mission_received
			random_owned_province = {
				limit = {
					has_province_flag = canarias_missionary_flag
				}
				change_variable = { which = catholic value = 2 }
				change_variable = { which = province_religion value = -2 }
			}
		}
		every_country = {
			limit = {
				has_country_flag = declined_canarias_mission
			}
			clr_country_flag = declined_canarias_mission
		}
	}
}
#### Give CNA an ultimatum
country_event = {
	id = canarias.5
	
	title = "canarias.5EVTNAME"
	desc = "canarias.5EVTDESC"
	
	picture = SIEGE_eventPicture
	
	trigger = {
		check_variable = { which = "canarias_points" value = 1 }
		is_year = 1365
		NOT = { CNA = { overlord = { religion = catholic } } }
		NOT = { CNA = { has_country_flag = canarias_conquista_cna } }
	}
	mean_time_to_happen = {
		years = 50
		modifier = {
			factor = 0.9
			check_variable = { which = "canarias_points" value = 1 }
		}
		modifier = {
			factor = 0.8
			check_variable = { which = "canarias_points" value = 2 }
		}
		modifier = {
			factor = 0.7
			check_variable = { which = "canarias_points" value = 3 }
		}
		modifier = {
			factor = 0.6
			check_variable = { which = "canarias_points" value = 4 }
		}
		modifier = {
			factor = 0.5
			check_variable = { which = "canarias_points" value = 5 }
		}
		modifier = {
			factor = 0.4
			check_variable = { which = "canarias_points" value = 6 }
		}
		modifier = {
			factor = 0.3
			check_variable = { which = "canarias_points" value = 7 }
		}
		modifier = {
			factor = 0.2
			check_variable = { which = "canarias_points" value = 8 }
		}
		modifier = {
			factor = 0.1
			check_variable = { which = "canarias_points" value = 9 }
		}
	}
	
	option = {
		name = "canarias.5a"
		ai_chance = {
			factor = 90
		}
		add_prestige = 2
		add_treasury = -50
		CNA = {
			country_event = { id = canarias.6 days = 30 random = 15 }
			set_country_flag = canarias_conquista_cna
		}
		set_country_flag = canarias_conquista
	}
	option = {
		name = "canarias.5b"
		ai_chance = {
			factor = 10
		}
		add_prestige = -2
	}
}
#### Ultimatum
country_event = {
	id = canarias.6
	
	title = "canarias.6EVTNAME"
	desc = "canarias.6EVTDESC"
	
	picture = SIEGE_eventPicture
	
	is_triggered_only = yes
	
	option = {
		name = "canarias.6a"
		ai_chance = {
			factor = 10
			
			#			modifier = {
			#				factor = 0
			#				NOT = {
			#					2751 = { religion = catholic }
			#					366 = { religion = catholic }
			#				}
			#			}
			modifier = {
				factor = 3
				OR = {
					2751 = { religion = catholic }
					366 = { religion = catholic }
				}
			}
			modifier = {
				factor = 9
				2751 = { religion = catholic }
				366 = { religion = catholic }
			}
		}
		add_prestige = -5
		change_religion = catholic
		clr_country_flag = canarias_conquista_cna
		FROM = {
			add_prestige = 5
			clr_country_flag = canarias_conquista
		}
	}
	option = {
		name = "canarias.6b"
		ai_chance = {
			factor = 90
		}
		add_prestige = 5
		FROM = {
			country_event = { id = canarias.7 days = 30 random = 15 }
		}
	}
}
#### Expedition
country_event = {
	id = canarias.7
	
	title = "canarias.7EVTNAME"
	desc = "canarias.7EVTDESC"
	
	picture = SIEGE_eventPicture
	
	is_triggered_only = yes
	
	option = {
		name = "canarias.7a"
		ai_chance = {
			factor = 90
		}
		add_prestige = 2
		add_treasury = -50
		random_list = {
			5 = {
				country_event = { id = canarias.8 }
			}
			95 = {
				CNA = {
					country_event = { id = canarias.9 days = 30 random = 15 }
					set_country_flag = canarias_conquista_cna
				}
				set_country_flag = canarias_conquista
			}
		}
	}
	option = {
		name = "canarias.7b"
		ai_chance = {
			factor = 10
			
			modifier = {
				factor = 3
				NOT = { treasury = 25 }
			}
			modifier = {
				factor = 3
				num_of_loans = 1
			}
			modifier = {
				factor = 3
				num_of_loans = 5
			}
			modifier = {
				factor = 3
				num_of_loans = 10
			}
		}
		add_prestige = -2
		clr_country_flag = canarias_conquista
		CNA = {
			clr_country_flag = canarias_conquista_cna
		}
	}
}
#### Conquistadors run off with the money
country_event = {
	id = canarias.8
	
	title = "canarias.8EVTNAME"
	desc = "canarias.8EVTDESC"
	
	picture = SIEGE_eventPicture
	
	is_triggered_only = yes
	
	option = {
		name = "canarias.8a" #give up
		add_prestige = -2
		change_variable = { which = "canarias_points" value = -1 }
	}
	option = {
		name = "canarias.8b" #Try again
		random_list = {
			5 = {
				country_event = { id = canarias.8 }
			}
			95 = {
				CNA = {
					country_event = { id = canarias.9 days = 30 random = 15 }
					set_country_flag = canarias_conquista_cna
				}
				set_country_flag = canarias_conquista
			}
		}
	}
}
#### Conquest starts
country_event = {
	id = canarias.9
	
	title = "canarias.9EVTNAME"
	desc = "canarias.9EVTDESC"
	
	picture = SIEGE_eventPicture
	
	is_triggered_only = yes
	
	option = {
		name = "canarias.9a" #give up
		every_owned_province = {
			limit = {
				check_variable = { which = "catholic" value = 2 }
			}
			spawn_rebels = {
				type = catholic_rebels
				size = 3
			}
		}
		set_country_flag = canarias_conquista_arrived
	}
}
#### Conquest is successful
province_event = {
	id = canarias.10
	
	title = "canarias.10EVTNAME"
	desc = "canarias.10EVTDESC"
	
	picture = SIEGE_eventPicture
	
	is_triggered_only = yes
	
	trigger = {
		is_capital = yes
		owned_by = CNA
		controlled_by = REB
		owner = {
			#has_spawned_rebels = catholic_rebels
			has_country_flag = canarias_conquista_arrived
			NOT = { has_country_flag = conquista_successful }
		}
	}
	option = {
		name = "canarias.10a"
		random_country = {
			limit = {
				has_country_flag = canarias_conquista
			}
			country_event = { id = canarias.11 days = 30 random = 15 }
		}
		owner = {
			change_religion = catholic
			change_government = feudal_monarchy
			if = {
				limit = {
					NOT = { has_country_modifier = title_5 }
					NOT = { has_country_modifier = title_6 }
				}
				change_title_5 = yes
			}
			change_technology_group = western
			change_unit_type = western
			set_country_flag = conquista_successful
			subtract_stability_3 = yes
			#disband_rebels = catholic_rebels
			disband_rebels = anti_tax_rebels
			every_owned_province = {
				limit = {
					controlled_by = REB
				}
				change_controller = CNA
			}
		}
	}
}
#### Conquest is successful - followup
country_event = {
	id = canarias.11
	
	title = "canarias.11EVTNAME"
	desc = "canarias.11EVTDESC"
	
	picture = SIEGE_eventPicture
	
	is_triggered_only = yes
	
	option = {
		name = "canarias.11a"
		set_country_flag = conquista_successful_sponsor
		CNA = {
			change_primary_culture = ROOT
			define_ruler = {
				adm = 3
				dip = 3
				mil = 3
			}
			kill_heir = yes
			country_event = { id = canarias.14 days = 30 random = 15 }
		}
		add_prestige = 5
	}
}
#### Conquest is a failure
country_event = {
	id = canarias.12
	
	title = "canarias.12EVTNAME"
	desc = "canarias.12EVTDESC"
	
	picture = SIEGE_eventPicture
	
	trigger = {
		tag = CNA
		has_country_flag = canarias_conquista_arrived
		all_owned_province = {
			NOT = { sieged_by = REB }
			NOT = { unit_in_battle = yes }
			NOT = { controlled_by = REB }
		}
		NOT = { religion = catholic }
	}
	
	mean_time_to_happen = { months = 10 }
	
	option = {
		name = "canarias.12a"
		add_prestige = 10
		clr_country_flag = canarias_conquista_arrived
		clr_country_flag = canarias_conquista_cna
		every_country = {
			limit = {
				has_country_flag = canarias_conquista
			}
			country_event = { id = canarias.13 days = 30 random = 15 }
		}
	}
}
#### Conquest is a failure - followup
country_event = {
	id = canarias.13
	
	title = "canarias.13EVTNAME"
	desc = "canarias.13EVTDESC"
	
	picture = SIEGE_eventPicture
	
	is_triggered_only = yes
	
	option = {
		name = "canarias.11a"
		add_prestige = -5
		clr_country_flag = canarias_conquista
	}
}

#### Conquistadors decide on the future of the state
country_event = {
	id = canarias.14
	
	title = "canarias.14EVTNAME"
	desc = "canarias.14EVTDESC"
	
	picture = SIEGE_eventPicture
	
	is_triggered_only = yes
	
	option = {
		name = "canarias.14a" #Become a vassal
		ai_chance = {
			factor = 90
		}
		add_prestige = -5
		FROM = {
			country_event = { id = canarias.15 days = 30 random = 15 }
		}
	}
	option = {
		name = "canarias.14b" #Go independent
		ai_chance = {
			factor = 10
		}
		add_prestige = 10
		FROM = {
			country_event = { id = canarias.20 days = 30 random = 15 }
		}
	}
}
#### Conquistadors ask to become a vassal state
country_event = {
	id = canarias.15
	
	title = "canarias.15EVTNAME"
	desc = "canarias.15EVTDESC"
	
	picture = SIEGE_eventPicture
	
	is_triggered_only = yes
	
	option = {
		name = "canarias.15a" #We gladly accept
		ai_chance = {
			factor = 50
		}
		add_prestige = 5
		vassalize = CNA
	}
	option = {
		name = "canarias.15b" #Try to buy the land
		ai_chance = {
			factor = 40
		}
		CNA = {
			country_event = { id = canarias.16 days = 30 random = 15 }
		}
	}
}
#### Crown wants to integrate the Canarias
country_event = {
	id = canarias.16
	
	title = "canarias.16EVTNAME"
	desc = "canarias.16EVTDESC"
	
	picture = SIEGE_eventPicture
	
	is_triggered_only = yes
	
	option = {
		name = "canarias.16a" #We gladly accept
		ai_chance = {
			factor = 50
		}
		FROM = {
			add_treasury = -50
			inherit = CNA
		}
	}
	option = {
		name = "canarias.16b" #Demand more money
		ai_chance = {
			factor = 50
		}
		FROM = {
			country_event = { id = canarias.17 days = 30 random = 15 }
		}
	}
}
#### Conquistadors demand more money
country_event = {
	id = canarias.17
	
	title = "canarias.17EVTNAME"
	desc = "canarias.17EVTDESC"
	
	picture = SIEGE_eventPicture
	
	is_triggered_only = yes
	
	option = {
		name = "canarias.17a" #We gladly accept
		ai_chance = {
			factor = 50
		}
		add_treasury = -100
		inherit = CNA
	}
	option = {
		name = "canarias.17b" #War
		ai_chance = {
			factor = 50
		}
		366 = { add_claim = ROOT }
		2751 = { add_claim = ROOT }
		CNA = {
			country_event = { id = canarias.27 days = 30 random = 15 }
		}
	}
	option = {
		name = "canarias.17c" #Ask again
		ai_chance = {
			factor = 50
		}
		CNA = {
			country_event = { id = canarias.18 days = 30 random = 15 }
		}
	}
}
#### Last question
country_event = {
	id = canarias.18
	
	title = "canarias.18EVTNAME"
	desc = "canarias.18EVTDESC"
	
	picture = SIEGE_eventPicture
	
	is_triggered_only = yes
	
	option = {
		name = "canarias.18a" #We gladly accept
		ai_chance = {
			factor = 50
		}
		FROM = {
			add_treasury = -50
			inherit = CNA
		}
	}
	option = {
		name = "canarias.18b" #No
		ai_chance = {
			factor = 50
		}
		FROM = {
			country_event = { id = canarias.19 days = 30 random = 15 }
		}
	}
}
#### Conquistadors won't yield
country_event = {
	id = canarias.19
	
	title = "canarias.19EVTNAME"
	desc = "canarias.19EVTDESC"
	
	picture = SIEGE_eventPicture
	
	is_triggered_only = yes
	
	option = {
		name = "canarias.19a"
		366 = { add_claim = ROOT }
		2751 = { add_claim = ROOT }
	}
}
#### Independence question
country_event = {
	id = canarias.20
	
	title = "canarias.20EVTNAME"
	desc = "canarias.20EVTDESC"
	
	picture = SIEGE_eventPicture
	
	is_triggered_only = yes
	
	option = {
		name = "canarias.20a" #We won't agree on this
		ai_chance = {
			factor = 90
		}
		366 = { add_claim = ROOT }
		2751 = { add_claim = ROOT }
	}
	option = {
		name = "canarias.20b" #We don't care after all
		ai_chance = {
			factor = 10
		}
		CNA = {
			country_event = { id = canarias.21 days = 30 random = 15 }
		}
	}
}
#### Independence achieved!
country_event = {
	id = canarias.21
	
	title = "canarias.21EVTNAME"
	desc = "canarias.21EVTDESC"
	
	picture = SIEGE_eventPicture
	
	is_triggered_only = yes
	
	option = {
		name = "canarias.21a" #Yay
		add_prestige = 20
	}
}
#### Catholic majority
country_event = {
	id = canarias.22
	
	title = "canarias.22EVTNAME"
	desc = "canarias.22EVTDESC"
	
	picture = SIEGE_eventPicture
	
	trigger = {
		tag = CNA
		NOT = { religion = catholic }
		capital_scope = {
			religion = catholic
		}
		NOT = { has_country_flag = canarias_not_catholic }
		NOT = { has_country_flag = canarias_asking_pope }
	}
	
	mean_time_to_happen = { months = 12 }
	
	option = {
		name = "canarias.22a" #Ask Pope for recognition
		ai_chance = {
			factor = 50
		}
		set_country_flag = canarias_asking_pope
		PAP = {
			country_event = { id = canarias.23 days = 30 random = 15 }
		}
	}
	option = {
		name = "canarias.22b" #Stay true to the tradition
		ai_chance = {
			factor = 50
		}
		add_prestige = 10
		set_country_flag = canarias_not_catholic
	}
}
#### Papal recognition
country_event = {
	id = canarias.23
	
	title = "canarias.23EVTNAME"
	desc = "canarias.23EVTDESC"
	
	picture = SIEGE_eventPicture
	
	is_triggered_only = yes
	
	option = {
		name = "canarias.23a" #Issue bull of recognition
		ai_chance = {
			factor = 90
		}
		CNA = {
			country_event = { id = canarias.24 days = 30 random = 15 }
		}
	}
	option = {
		name = "canarias.23b" #They are primitives
		ai_chance = {
			factor = 10
		}
		CNA = {
			country_event = { id = canarias.25 days = 30 random = 15 }
		}
	}
}

#### Papal recognition achieved
country_event = {
	id = canarias.24
	
	title = "canarias.24EVTNAME"
	desc = "canarias.24EVTDESC"
	
	picture = SIEGE_eventPicture
	
	is_triggered_only = yes
	
	option = {
		name = "canarias.24a"
		change_religion = catholic
		add_prestige = 10
		clr_country_flag = canarias_asking_pope
	}
}
#### Papal recognition not achieved
country_event = {
	id = canarias.25
	
	title = "canarias.25EVTNAME"
	desc = "canarias.25EVTDESC"
	
	picture = SIEGE_eventPicture
	
	is_triggered_only = yes
	
	option = {
		name = "canarias.25a"
		add_prestige = -10
		set_country_flag = canarias_not_catholic
	}
}
#### Notification for CNA about catholic minority
country_event = {
	id = canarias.26
	
	title = "canarias.26EVTNAME"
	desc = "canarias.26EVTDESC"
	
	picture = SIEGE_eventPicture
	
	is_triggered_only = yes
	
	option = {
		name = "canarias.26a"
	}
}
#### Throne is preparing an invasion
country_event = {
	id = canarias.27
	
	title = "canarias.27EVTNAME"
	desc = "canarias.27EVTDESC"
	
	picture = SIEGE_eventPicture
	
	is_triggered_only = yes
	
	option = {
		name = "canarias.27a"
	}
}
#### Missionaries are declined entry
country_event = {
	id = canarias.28
	
	title = "canarias.28EVTNAME"
	desc = "canarias.28EVTDESC"
	
	picture = SIEGE_eventPicture
	
	is_triggered_only = yes
	
	option = {
		name = "canarias.28a" #Bribe officials 25$
		ai_chance = {
			factor = 25
		}
		trigger = {
			treasury = 10
		}
		add_treasury = -10
		set_country_flag = canarias_bribe_25
		CNA = {
			country_event = { id = canarias.29 days = 30 random = 15 }
		}
	}
	option = {
		name = "canarias.28b" #Bribe officials 50$
		ai_chance = {
			factor = 25
		}
		trigger = {
			treasury = 25
		}
		add_treasury = -25
		set_country_flag = canarias_bribe_50
		CNA = {
			country_event = { id = canarias.29 days = 30 random = 15 }
		}
	}
	option = {
		name = "canarias.28c" #Bribe officials 100$
		ai_chance = {
			factor = 25
		}
		trigger = {
			treasury = 50
		}
		add_treasury = -50
		set_country_flag = canarias_bribe_100
		CNA = {
			country_event = { id = canarias.29 days = 30 random = 15 }
		}
	}
	option = {
		name = "canarias.28d" #Drop the mission
		ai_chance = {
			factor = 25
		}
		clr_country_flag = canarias_mission_send
		remove_country_modifier = canarias_mission_modifier
		CNA = {
			clr_country_flag = canarias_mission_received
		}
		PAP = {
			set_country_flag = asked_canarias_mission_pap
		}
	}
}
#### Decision after bribe
country_event = {
	id = canarias.29
	
	title = "canarias.29EVTNAME"
	desc = "canarias.29EVTDESC"
	
	picture = SIEGE_eventPicture
	
	is_triggered_only = yes
	
	option = {
		name = "canarias.29a" #Take the bribe
		ai_chance = {
			factor = 20
			modifier = {
				factor = 1.5
				FROM = {
					has_country_flag = canarias_bribe_25
				}
			}
			modifier = {
				factor = 3.0
				FROM = {
					has_country_flag = canarias_bribe_50
				}
			}
			modifier = {
				factor = 6.0
				FROM = {
					has_country_flag = canarias_bribe_100
				}
			}
		}
		if = {
			limit = {
				FROM = {
					has_country_flag = canarias_bribe_25
				}
			}
			add_treasury = 10
		}
		if = {
			limit = {
				FROM = {
					has_country_flag = canarias_bribe_50
				}
			}
			add_treasury = 25
		}
		if = {
			limit = {
				FROM = {
					has_country_flag = canarias_bribe_100
				}
			}
			add_treasury = 50
		}
		random_owned_province = {
			limit = {
				NOT = { religion = catholic }
			}
			add_province_modifier = { name = heretic_missionary duration = 1825 }
			set_province_flag = canarias_missionary_flag
		}
		FROM = {
			country_event = { id = canarias.30 days = 30 random = 15 }
		}
	}
	option = {
		name = "canarias.29b" #Decline
		ai_chance = {
			factor = 80
		}
		FROM = {
			country_event = { id = canarias.31 days = 30 random = 15 }
			set_country_flag = declined_canarias_mission
			clr_country_flag = canarias_mission_send
			clr_country_flag = canarias_bribe_100
			clr_country_flag = canarias_bribe_25
			clr_country_flag = canarias_bribe_50
			remove_country_modifier = canarias_mission_modifier
		}
		PAP = {
			set_country_flag = asked_canarias_mission_pap
		}
		clr_country_flag = canarias_mission_received
	}
}
#### Notification, bribe acepted
country_event = {
	id = canarias.30
	
	title = "canarias.30EVTNAME"
	desc = "canarias.30EVTDESC"
	
	picture = SIEGE_eventPicture
	
	is_triggered_only = yes
	
	option = {
		name = "canarias.20a" #
	}
}
#### Notification, bribe declined
country_event = {
	id = canarias.31
	
	title = "canarias.31EVTNAME"
	desc = "canarias.31EVTDESC"
	
	picture = SIEGE_eventPicture
	
	is_triggered_only = yes
	
	option = {
		name = "canarias.31a" #
	}
}
#### Missionaries are not making new converts
country_event = {
	id = canarias.32
	
	title = "canarias.32EVTNAME"
	desc = "canarias.32EVTDESC"
	
	picture = SIEGE_eventPicture
	
	trigger = {
		tag = CNA
		has_country_flag = canarias_mission_received
	}
	
	mean_time_to_happen = { years = 50 }
	
	option = {
		name = "canarias.32a"
		clr_country_flag = canarias_mission_received
		every_owned_province = {
			limit = {
				has_province_modifier = heretic_missionary
			}
			remove_province_modifier = heretic_missionary
		}
		every_country = {
			limit = {
				has_country_flag = canarias_mission_send
			}
			set_country_flag = declined_canarias_mission
			clr_country_flag = canarias_mission_send
			clr_country_flag = canarias_bribe_100
			clr_country_flag = canarias_bribe_25
			clr_country_flag = canarias_bribe_50
			remove_country_modifier = canarias_mission_modifier
			country_event = { id = canarias.35 days = 30 random = 15 }
		}
	}
}
#### Missionaries are disappearing
country_event = {
	id = canarias.33
	
	title = "canarias.33EVTNAME"
	desc = "canarias.33EVTDESC"
	
	picture = SIEGE_eventPicture
	
	trigger = {
		tag = CNA
		has_country_flag = canarias_mission_received
	}
	
	mean_time_to_happen = { years = 50 }
	
	option = {
		name = "canarias.33a"
		clr_country_flag = canarias_mission_received
		every_owned_province = {
			limit = {
				has_province_modifier = heretic_missionary
			}
			remove_province_modifier = heretic_missionary
		}
		every_country = {
			limit = {
				has_country_flag = canarias_mission_send
			}
			set_country_flag = declined_canarias_mission
			clr_country_flag = canarias_mission_send
			clr_country_flag = canarias_bribe_100
			clr_country_flag = canarias_bribe_25
			clr_country_flag = canarias_bribe_50
			remove_country_modifier = canarias_mission_modifier
			country_event = { id = canarias.36 days = 30 random = 15 }
		}
	}
}
#### Missionaries are being killed
country_event = {
	id = canarias.34
	
	title = "canarias.34EVTNAME"
	desc = "canarias.34EVTDESC"
	
	picture = SIEGE_eventPicture
	
	trigger = {
		tag = CNA
		has_country_flag = canarias_mission_received
	}
	
	mean_time_to_happen = { years = 50 }
	
	option = {
		name = "canarias.34a"
		clr_country_flag = canarias_mission_received
		every_owned_province = {
			limit = {
				has_province_modifier = heretic_missionary
			}
			remove_province_modifier = heretic_missionary
		}
		every_country = {
			limit = {
				has_country_flag = canarias_mission_send
			}
			set_country_flag = declined_canarias_mission
			clr_country_flag = canarias_mission_send
			clr_country_flag = canarias_bribe_100
			clr_country_flag = canarias_bribe_25
			clr_country_flag = canarias_bribe_50
			remove_country_modifier = canarias_mission_modifier
			country_event = { id = canarias.37 days = 30 random = 15 }
		}
	}
}
#### Notification, missionaries are not making new converts
country_event = {
	id = canarias.35
	
	title = "canarias.35EVTNAME"
	desc = "canarias.35EVTDESC"
	
	picture = SIEGE_eventPicture
	
	is_triggered_only = yes
	
	option = {
		name = "canarias.35a" #
	}
}
#### Notification, missionaries are dissapearing
country_event = {
	id = canarias.36
	
	title = "canarias.36EVTNAME"
	desc = "canarias.36EVTDESC"
	
	picture = SIEGE_eventPicture
	
	is_triggered_only = yes
	
	option = {
		name = "canarias.36a" #
	}
}
#### Notification, missionaries are being killed
country_event = {
	id = canarias.37
	
	title = "canarias.37EVTNAME"
	desc = "canarias.37EVTDESC"
	
	picture = SIEGE_eventPicture
	
	is_triggered_only = yes
	
	option = {
		name = "canarias.37a" #
	}
}
