#Persian events

# The Qizilbash
country_event = {
	id = hee_PER.1
	title = hee_PER.1.t
	desc = hee_PER.1.d
	picture = HORDE_ON_HORSEBACK_eventPicture
	
	fire_only_once = yes
	
	trigger = {
		tag = PER
		NOT = {
			is_year = 1600
		}
		religion = shiite
	}
	
	mean_time_to_happen = { months = 4 }
	
	option = { #They are here for us now, that is all that matters.
		name = hee_PER.1.a
		hidden_effect = {
			add_country_modifier = {
				name = per_the_qizilbash
				duration = -1
				hidden = yes
			}
		}
		add_mil_power = 50
	}
}

# The Qizilbash Lend Their Support
country_event = {
	id = hee_PER.2
	title = hee_PER.2.t
	desc = hee_PER.2.d
	picture = MILITARY_CAMP_eventPicture
	
	trigger = {
		tag = PER
		NOT = {
			has_country_modifier = per_end_qizilbash_influence
			has_country_modifier = per_qizilbash_support
		}
		has_country_modifier = per_the_qizilbash
		any_country = {
			any_owned_province = {
				is_core = PER
			}
			war_with = PER
		}
	}
	
	mean_time_to_happen = { months = 18 }
	
	immediate = {
		hidden_effect = {
			add_country_modifier = {
				name = per_qizilbash_support
				duration = 3650
				hidden = yes
			}
		}
	}
	
	
	option = { #United for the Shah!
		name = hee_PER.2.a
		add_manpower = 10
		add_army_tradition = 5
	}
	option = { # Ask for their guidance
		name = hee_PER.2.b
		add_mil_power = 50
		add_army_tradition = 10
	}
}

# The Qizilbash Fight for Power
country_event = {
	id = hee_PER.3
	title = hee_PER.3.t
	desc = hee_PER.3.d
	picture = HORDE_ON_HORSEBACK_eventPicture
	
	trigger = {
		tag = PER
		has_country_modifier = per_the_qizilbash
		NOT = { legitimacy = 80 }
		NOT = { has_country_modifier = per_end_qizilbash_influence }
		NOT = { has_ruler_modifier = per_qizilbash_fight }
	}
	
	mean_time_to_happen = { months = 6 }
	
	
	option = { # Long live the Shah!
		name = hee_PER.3.a
		hidden_effect = {
			add_ruler_modifier = {
				name = per_qizilbash_fight
				duration = -1
				hidden = yes
			}
		}
		random_owned_province = {
			limit = {
				NOT = { has_province_modifier = pretender_organizing }
			}
			add_province_modifier = {
				name = "pretender_organizing"
				duration = 1825
			}
			hidden_effect = {
				set_variable = { which = added_unrest value = 5 }
				add_base_unrest = yes
			}
			custom_tooltip = added_unrest_5
		}
		random_owned_province = {
			limit = {
				NOT = { has_province_modifier = pretender_organizing }
			}
			add_province_modifier = {
				name = "pretender_organizing"
				duration = 1825
			}
			hidden_effect = {
				set_variable = { which = added_unrest value = 5 }
				add_base_unrest = yes
			}
			custom_tooltip = added_unrest_5
		}
		random_owned_province = {
			limit = {
				NOT = { has_province_modifier = pretender_organizing }
			}
			add_province_modifier = {
				name = "pretender_organizing"
				duration = 1825
			}
			hidden_effect = {
				set_variable = { which = added_unrest value = 5 }
				add_base_unrest = yes
			}
			custom_tooltip = added_unrest_5
		}
		random_owned_province = {
			limit = {
				NOT = { has_province_modifier = pretender_organizing }
			}
			add_province_modifier = {
				name = "pretender_organizing"
				duration = 1825
			}
			hidden_effect = {
				set_variable = { which = added_unrest value = 5 }
				add_base_unrest = yes
			}
			custom_tooltip = added_unrest_5
		}
	}
	
	option = { # Let us ensure the loyalty of the tribes.
		name = hee_PER.3.b
		hidden_effect = {
			add_ruler_modifier = {
				name = per_qizilbash_fight
				duration = -1
				hidden = yes
			}
		}
		add_dip_power = -100
	}
}

# Qizilbash Plot!
country_event = {
	id = hee_PER.4
	title = hee_PER.4.t
	desc = hee_PER.4.d
	picture = LIBERUM_VETO_eventPicture
	
	trigger = {
		tag = PER
		NOT = { has_country_modifier = per_end_qizilbash_influence }
		has_country_modifier = per_the_qizilbash
		has_advisor = yes
	}
	
	mean_time_to_happen = { years = 30 }
	
	immediate = {
		kill_advisor = random
	}
	
	option = { # The situation will only get worse if we interfere.
		name = hee_PER.4.a
		subtract_stability_1 = yes
	}
	
	option = { # We will not be slaves to the whims of the tribes!
		name = hee_PER.4.b
		random_owned_province = {
			limit = {
				NOT = { has_province_modifier = nobles_organizing }
			}
			add_province_modifier = {
				name = "nobles_organizing"
				duration = 1825
			}
			hidden_effect = {
				set_variable = { which = added_unrest value = 5 }
				add_base_unrest = yes
			}
			custom_tooltip = added_unrest_5
		}
		random_owned_province = {
			limit = {
				NOT = { has_province_modifier = nobles_organizing }
			}
			add_province_modifier = {
				name = "nobles_organizing"
				duration = 1825
			}
			hidden_effect = {
				set_variable = { which = added_unrest value = 5 }
				add_base_unrest = yes
			}
			custom_tooltip = added_unrest_5
		}
	}
}

# Pressure From the Qizilbash
country_event = {
	id = hee_PER.5
	title = hee_PER.5.t
	desc = hee_PER.5.d
	picture = ANGRY_MOB_eventPicture
	
	trigger = {
		tag = PER
		NOT = { has_country_modifier = per_end_qizilbash_influence }
		has_country_modifier = per_the_qizilbash
		NOT = { has_ruler_modifier = per_resisted_qizilbash }
	}
	
	mean_time_to_happen = { years = 30 }
	
	
	option = { # Let them have their way.
		name = hee_PER.5.a
		add_adm_power = -50
		add_mil_power = 25
	}
	
	option = { # Resist every way we can!
		name = hee_PER.5.b
		add_adm_power = -25
		add_dip_power = -25
		add_mil_power = -25
		hidden_effect = {
			add_ruler_modifier = {
				name = per_resisted_qizilbash
				duration = 3650
				hidden = yes
			}
		}
	}
	
	option = { # Those who oppose us will be driven out!
		name = hee_PER.5.c
		hidden_effect = {
			add_ruler_modifier = {
				name = per_resisted_qizilbash
				duration = 7300
				hidden = yes
			}
		}
		random_owned_province = {
			limit = {
				NOT = { has_province_modifier = nobles_organizing }
			}
			add_province_modifier = {
				name = "nobles_organizing"
				duration = 1825
			}
			hidden_effect = {
				set_variable = { which = added_unrest value = 5 }
				add_base_unrest = yes
			}
			custom_tooltip = added_unrest_5
		}
		random_owned_province = {
			limit = {
				NOT = { has_province_modifier = nobles_organizing }
			}
			add_province_modifier = {
				name = "nobles_organizing"
				duration = 1825
			}
			hidden_effect = {
				set_variable = { which = added_unrest value = 5 }
				add_base_unrest = yes
			}
			custom_tooltip = added_unrest_5
		}
	}
}

# The Third Force
country_event = {
	id = hee_PER.6
	title = hee_PER.6.t
	desc = hee_PER.6.d
	picture = FARMING_eventPicture
	
	fire_only_once = yes
	
	trigger = {
		tag = PER
		NOT = { has_country_modifier = per_end_qizilbash_influence }
		has_country_modifier = per_the_qizilbash
		is_year = 1580
		mil = 3
		dip = 3
		adm = 3
		caucasia_region = { owned_by = PER }
	}
	
	mean_time_to_happen = { years = 10 }
	
	option = { # We need them to reform our society!
		name = hee_PER.6.a
		random_owned_province = {
			limit = {
				NOT = { base_tax = 4 }
			}
			change_culture = ge_armenian
			# add_base_tax = 1
		}
		add_manpower = 15
		add_country_modifier = {
			name = per_the_third_force
			duration = -1
			hidden = yes
		}
	}
	
	option = { # The Qizibash are no threat to the Shah.
		name = hee_PER.6.b
		add_stability_1 = yes
	}
}

# End of Tribal Independence
country_event = {
	id = hee_PER.7
	title = hee_PER.7.t
	desc = hee_PER.7.d
	picture = GOOD_WITH_MONARCH_eventPicture
	
	trigger = {
		tag = PER
		NOT = { has_country_modifier = per_end_qizilbash_influence }
		has_country_modifier = per_the_qizilbash
		has_country_modifier = per_the_third_force
	}
	
	mean_time_to_happen = { years = 15 }
	
	option = { # No one will ever hold Persia hostage again!
		name = hee_PER.7.a
		hidden_effect = {
			add_country_modifier = {
				name = per_end_qizilbash_influence
				duration = -1
				hidden = yes
			}
		}
		add_prestige = 20
		add_stability_1 = yes
		capital_scope = {
			# add_base_tax = 1
			hidden_effect = {
				remove_country_modifier = per_the_qizilbash
			}
		}
	}
}

#Decline of the Qizilbash
country_event = {
	id = hee_PER.8
	title = hee_PER.8.t
	desc = hee_PER.8.d
	picture = REFORM_eventPicture
	
	trigger = {
		tag = PER
		is_year = 1610
		NOT = { has_country_modifier = per_the_third_force }
		has_country_modifier = per_the_qizilbash
	}
	
	mean_time_to_happen = { years = 20 }
	
	option = { # IT is time Persia looked to the future.
		name = hee_PER.8.a
		hidden_effect = {
			remove_country_modifier = per_the_qizilbash
		}
		hidden_effect = {
			add_country_modifier = {
				name = per_end_qizilbash_influence
				duration = -1
				hidden = yes
			}
		}
		add_stability_1 = yes
	}
}
