34 = "Ingerie"
36 = "Estie"
99 = "Gelder"
112 = "Venice"
248 = "Midlowden"
249 = "Gallawa"
250 = "Aiberdeen"
251 = "Athall"
252 = "Argyll"
253 = "Innerness"
409 = "Cumbria"
1251 = "Faroe"
1283 = "Cambrig"
1292 = "New Novgorod"
1293 = "Astriekin"
1300 = "Abkhazie"
1416 = "Aest Lowden"
1417 = "Ooter Hebrides"
2512 = "Hielands"
