# 2074 - Assurini

capital = "Assurini"
trade_goods = unknown
culture = cariban
religion = pantheism

hre = no

base_tax = 3
base_production = 0
base_manpower = 0

native_size = 20
native_ferocity = 1
native_hostileness = 3

450.1.1 = {
	set_province_flag = tribals_control_province
}
1500.1.1 = {
	base_tax = 1
	native_size = 5
}
1700.1.1 = {
	discovered_by = POR
	owner = POR
	controller = POR
	add_core = POR
	citysize = 10
	trade_goods = brazil
	set_province_flag = trade_good_set
	base_tax = 1
}
1720.1.1 = {
	citysize = 500
	capital = "Manacapuru"
	culture = portugese
	religion = catholic
}
1750.1.1 = {
	add_core = BRZ
	culture = brazilian
}
1822.9.7 = {
	owner = BRZ
	controller = BRZ
}
1825.1.1 = {
	remove_core = POR
}
