# 2260 - Qinghai

owner = SYG
controller = SYG
add_core = SYG

capital = "Qabqa"
trade_goods = subsistence
culture = old_uyghur
religion = mahayana

hre = no

base_tax = 10
base_production = 0
base_manpower = 0

is_city = yes

discovered_by = chinese
discovered_by = steppestech

450.1.1 = {
	set_province_flag = tribals_control_province
}
1449.9.1 = {
	owner = TMD
	controller = TMD
	add_core = TMD
}
1637.6.1 = {
	controller = KSD
	owner = KSD
	add_core = KSD
}
1717.1.1 = {
	owner = ZUN
	controller = ZUN
} # Zunghar invasion of Tibet
1720.1.1 = {
	owner = KSD
	controller = KSD
	add_core = KSD
}
1724.1.1 = {
	owner = QNG
	controller = QNG
	add_core = QNG
} # Qinghai conquered by Qing
1755.10.4 = {
	unrest = 7
} # Rebellion against the Chinese
1757.10.4 = {
	unrest = 0
}
