# 2985 - Angoche

owner = QLM
controller = QLM
add_core = QLM

capital = "Angoche"
trade_goods = slaves
culture = kimwani
religion = sunni

hre = no

base_tax = 9
base_production = 0
base_manpower = 0

is_city = yes

discovered_by = central_african
discovered_by = east_african

450.1.1 = {
	set_province_flag = tribals_control_province
}
1498.3.16 = {
	discovered_by = POR
} #Vasco Da Gama
1520.1.1 = {
	base_tax = 14
}
1600.1.1 = {
	discovered_by = TUR
}
1730.1.1 = {
	owner = POR
	controller = POR
	add_core = POR
}
1763.1.1 = {
	unrest = 7
}
