# No previous file for Epegoitnag

capital = "Epegoitnag"
trade_goods = unknown
culture = miqmaq
religion = totemism

hre = no

base_tax = 3
base_production = 0
base_manpower = 0

native_size = 50
native_ferocity = 2
native_hostileness = 5

450.1.1 = {
	set_province_flag = tribals_control_province
}
1534.1.1 = {
	discovered_by = FRA
} # Jacques Cartier
1605.1.1 = {
	owner = FRA
	controller = FRA
	citysize = 366
	culture = francien
	religion = catholic
	trade_goods = fish
} # Port Royal
1608.1.1 = {
	citysize = 840
}
1613.1.1 = {
	owner = ENG
	controller = ENG
	culture = english
	religion = protestant
} # Taken by the troops of Samuel Argall
1632.3.29 = {
	owner = FRA
	controller = FRA
	culture = francien
	religion = catholic
} # Treaty of St. Germain-en-Layne, handed back to the French
1657.1.1 = {
	add_core = FRA
}
1692.1.1 = {
	controller = ENG
} # King William's war
1697.9.20 = {
	controller = FRA
} # Treaty of Ryswick
1707.5.12 = {
	discovered_by = GBR
}
1710.10.1 = {
	controller = GBR
} # Queen Anne's war
1713.4.11 = {
	owner = GBR
	remove_core = FRA
} # Treaty of Utrecht
1738.4.11 = {
	add_core = GBR
}
1750.1.1 = {
	culture = english
	religion = protestant
} #British forcibly remove Acadians
