# 5377 - hebei_area Jizhou

owner = YUA
controller = YUA

capital = "Jizhou"
trade_goods = wheat
culture = jilu
religion = confucianism

hre = no

base_tax = 11
base_production = 0
base_manpower = 0

is_city = yes
road_network = yes
temple = yes

discovered_by = chinese
discovered_by = steppestech

450.1.1 = {
	add_permanent_province_modifier = {
		name = great_wall_ruins
		duration = -1
	}
}
1276.1.1 = {
	owner = YUA
	controller = YUA
	add_core = YUA
}
1369.3.17 = {
	owner = MNG
	controller = MNG
	add_core = MNG
	remove_core = YUA
}
1520.2.2 = {
	base_tax = 17
	base_production = 0
	base_manpower = 1
}
1645.6.25 = {
	owner = QNG
	controller = QNG
	add_core = QNG
} # The Qing Dynasty
1662.1.1 = {
	remove_core = MNG
}
