# 5426 Fuzhou ??

owner = YUA
controller = YUA

capital = "Linchuan"
trade_goods = fish
culture = ganyu
religion = confucianism

hre = no

base_tax = 68
base_production = 0
base_manpower = 3

is_city = yes
road_network = yes
temple = yes

discovered_by = chinese
discovered_by = steppestech

1276.1.1 = {
	owner = CNG
	controller = CNG
	add_core = CNG
}
1369.3.17 = {
	owner = MNG
	controller = MNG
	add_core = MNG
	remove_core = YUA
}
1520.2.2 = {
	base_tax = 106
	base_manpower = 5
}
1645.6.25 = {
	owner = QNG
	controller = QNG
	add_core = QNG
} # The Qing Dynasty
1662.1.1 = {
	remove_core = MNG
}
