# 5443 Qingyuan

owner = YUA
controller = YUA

capital = "Qingyuan"
trade_goods = rice
culture = zhuang
religion = animism

hre = no

base_tax = 10
base_production = 0
base_manpower = 0

is_city = yes
temple = yes

discovered_by = chinese
discovered_by = steppestech

450.1.1 = {
	set_province_flag = tribals_control_province
}
1276.1.1 = {
	owner = YUA
	controller = YUA
	add_core = YUA
	add_core = LNG
}
1351.1.1 = {
	owner = ZHN
	controller = ZHN
	add_core = ZHN
}
1369.3.17 = {
	owner = MNG
	controller = MNG
	add_core = MNG
	remove_core = YUA
	remove_core = LNG
}
1520.2.2 = {
	base_tax = 15
	base_manpower = 1
}
1645.6.25 = {
	owner = QNG
	controller = QNG
	add_core = QNG
} # The Qing Dynasty
1662.1.1 = {
	remove_core = MNG
}
