# 820 - Huancayo

owner = HUA
controller = HUA
add_core = HUA

capital = "Huancayo"
trade_goods = maize
culture = huaylas
religion = inti

hre = no

base_tax = 28
base_production = 1
base_manpower = 2

is_city = yes
road_network = yes
town_hall = yes
marketplace = yes

discovered_by = south_american

450.1.1 = {
	set_province_flag = tribals_control_province
}
1463.1.1 = {
	owner = CZC
	controller = CZC
	add_core = CZC
}
1480.1.1 = {
	owner = INC
	controller = INC
	add_core = INC
	remove_core = CZC
	paved_road_network = yes
}
1501.1.1 = {
	base_tax = 6
	base_production = 2
	native_size = 5
}
1529.1.1 = {
	owner = QUI
	controller = QUI
	add_core = QUI
	add_core = CZC
	remove_core = INC
	marketplace = yes
}
1535.1.1 = {
	discovered_by = SPA
	add_core = SPA
	owner = SPA
	controller = SPA
	culture = castillian
	religion = catholic
} # Last stronghold found and captured
1750.1.1 = {
	add_core = PEU
	culture = peruvian
}
1810.9.18 = {
	owner = PEU
	controller = PEU
}
1818.2.12 = {
	remove_core = SPA
}
