
#Japan Discovered!
country_event = {
	id = far_east.9000
	title = "EVTNAME9000"
	desc = "EVTDESC9000"
	picture = MERCHANTS_TALKING_eventPicture
	
	trigger = {
		NOT = {
			has_global_flag = japan_has_encountered_the_west
		}
		technology_group = western
		OR = {
			religion = reformed
			religion = catholic
			religion = protestant
		}
		1020 = {
			has_discovered = ROOT
		}
	}
	
	mean_time_to_happen = {
		months = 12
	}
	
	option = {
		name = "EVTOPTA9000"
		add_prestige = 10
		set_global_flag = japan_has_encountered_the_west
	}
}

# Kyoto Discovered!
country_event = {
	id = far_east.9001
	title = "EVTNAME9001"
	desc = "EVTDESC9001"
	picture = MERCHANTS_TALKING_eventPicture
	
	is_triggered_only = yes

	immediate = { set_country_flag = japan_discovered }

	option = {
		name = "EVTOPTA9001"
		discover_province = 2283
	}
}

# Christian Pater
country_event = {
	id = far_east.9004
	title = "EVTNAME9004"
	desc = "EVTDESC9004"
	picture = RELIGION_eventPicture
	
	trigger = {
		NOT = {
			has_global_flag = japan_is_closed
		}
		OR = {
			government = early_medieval_japanese_gov
			government = late_medieval_japanese_gov
			government = early_modern_japanese_gov
		}
		NOT = { government_rank = 5 }
		has_global_flag = japan_has_encountered_the_west
		any_known_country = {
			technology_group = western
			religion_group = christian
		}
		NOT = {
			has_country_flag = jap_christian_pater_flag
		}
	}
	
	mean_time_to_happen = {
		months = 450
		modifier = {
			factor = 0.9
			innovativeness_ideas = 4
		}
		modifier = {
			factor = 0.9
			innovativeness_ideas = 6
		}
		modifier = {
			factor = 0.9
			innovativeness_ideas = 7
		}
		modifier = {
			factor = 0.8
			has_country_modifier = western_embassy_mission
		}
	}
	
	immediate = {
		set_country_flag = jap_christian_pater_flag
	}
	
	option = {
		name = "EVTOPTA9004"
		ai_chance = {
			factor = 25
			modifier = {
				factor = 0
				NOT = {
					any_owned_province = {
						has_port = yes
					}
				}
			}
		}
		random_owned_province = {
			limit = {
				NOT = {
					religion = catholic
				}
				NOT = {
					has_province_modifier = local_christian_mission
				}
			}
			add_province_modifier = {
				name = local_christian_mission
				duration = 3650
			}
		}
	}
	
	option = {
		name = "EVTOPTB9004"
		ai_chance = { factor = 75 }		
		add_adm_power = -20
		add_prestige = 2
	}
}

# Christian Converts
province_event = {
	id = far_east.9006
	title = "EVTNAME9006"
	desc = "EVTDESC9006"
	picture = RELIGION_eventPicture
	
	trigger = {
		NOT = {
			has_global_flag = japan_is_closed
		}
		has_province_modifier = local_christian_mission
		owner = {
			OR = {
				government = early_medieval_japanese_gov
				government = late_medieval_japanese_gov
				government = early_modern_japanese_gov
			}
			NOT = { government_rank = 5 }
		}
		has_global_flag = japan_has_encountered_the_west
	}
	
	mean_time_to_happen = {
		months = 450
		modifier = {
			factor = 0.9
			owner = { innovativeness_ideas = 4 }
		}
		modifier = {
			factor = 0.9
			owner = { innovativeness_ideas = 6 }
		}
		modifier = {
			factor = 0.9
			owner = { innovativeness_ideas = 7 }
		}
	}
	
	option = {
		name = "EVTOPTA9006"
		ai_chance = {
			factor = 50
			modifier = {
				factor = 0.5
				owner = {
					NOT = {
						any_owned_province = {
							religion = catholic
						}
					}
				}
			}
		}
		change_variable = { which = province_religion value = -14 }
		change_variable = { which = catholic value = 14 }
		change_religion = catholic
		remove_province_modifier = local_christian_mission
	}
	option = {
		name = "EVTOPTB9006"
		ai_chance = {
			factor = 50
			modifier = {
				factor = 0
				OR = {
					owner = { num_of_revolts = 1 }
					NOT = { owner = { stability = 0 } }
				}
			}
		}
		spawn_rebels = {
			type = catholic_rebels
			size = 2
		}
		remove_province_modifier = local_christian_mission
	}
}

# Kirishitan Tensions
province_event = {
	id = far_east.9008
	title = "EVTNAME9008"
	desc = "EVTDESC9008"
	picture = RELIGION_eventPicture
	
	trigger = {
		culture_group = japanese
		religion = catholic
		can_spawn_rebels = catholic_rebels 
		owner = {
			religion = shinto
		}
	}
	
	mean_time_to_happen = {
		months = 2000
		modifier = {
			factor = 0.9
			unrest = 2
		}
		modifier = {
			factor = 0.8
			unrest = 4
		}
		modifier = {
			factor = 0.8
			unrest = 8
		}
#		modifier = {
#			factor = 0.9
#			owner = { has_idea = deus_vult }
#		}
		modifier = {
			factor = 1.4
			has_global_flag = japan_is_closed
		}
	}
	
	option = {
		name = "EVTOPTA9008"
		random_list = {
			90 = {
				spawn_rebels = {
					type = catholic_rebels
					size = 2
				}
			}
			10 = {
				change_variable = { which = province_religion value = -14 }
				change_variable = { which = shinto value = 14 }
				change_religion = shinto
				spawn_rebels = {
					type = catholic_rebels
					size = 1
				}
			}
		}
	}
}

# Red Seal Ship Returns
country_event = {
	id = far_east.9010
	title = "EVTNAME9010"
	desc = "EVTDESC9010"
	picture = NAVAL_MILITARY_eventPicture
	
	trigger = {
		OR = {
			government = early_medieval_japanese_gov
			government = late_medieval_japanese_gov
			government = early_modern_japanese_gov
		}
		NOT = { government_rank = 5 }
		NOT = {
			has_global_flag = japan_is_closed
		}
		NOT = {
			has_country_flag = jap_red_ship_timer
		}
	}
	
	mean_time_to_happen = {
		months = 700
		modifier = {
			factor = 0.8
			has_idea = merchant_adventures
		}
		modifier = {
			factor = 0.8
			mercantilism = 50
		}
		modifier = {
			factor = 0.8
			mercantilism = 70
		}
		modifier = {
			factor = 0.8
			mercantilism = 90
		}
		modifier = {
			factor = 0.9
			has_idea = grand_navy
		}
		modifier = {
			factor = 0.9
			advisor = trader
		}
		modifier = {
			factor = 1.2
			NOT = {
				mercantilism = 50
			}
		}
		modifier = {
			factor = 1.2
			NOT = {
				mercantilism = 30
			}
		}
		modifier = {
			factor = 1.2
			NOT = {
				mercantilism = 10
			}
		}
	}
	
	immediate = {
		hidden_effect = {
			add_country_modifier = {
				name = jap_red_ship_timer
				duration = 1825
				hidden = yes
			}
		}
	}
	
	option = {
		name = "EVTOPTA9010"
		random_list = {
			20 = {
				add_dip_power = 20
				add_army_tradition = 5
			}
			20 = {
				add_mil_power = 20
				add_adm_power = 30
			}
			20 = {
				add_adm_power = 30
				add_dip_power = 10
			}
			20 = {
				add_years_of_income = 0.5
			}
		}
	}
}

# Western Embassy Returns Successful
country_event = {
	id = far_east.9012
	title = "EVTNAME9012"
	desc = "EVTDESC9012"
	picture = DIPLOMACY_eventPicture
	
	trigger = {
		has_country_modifier = western_embassy_mission
		any_owned_province = {
			religion = shinto
		}
		NOT = {
			religion = catholic
		}
		NOT = {
			has_global_flag = japan_is_closed
		}
	}
	
	mean_time_to_happen = {
		months = 500
		modifier = {
			factor = 0.9
			dip = 1
		}
		modifier = {
			factor = 0.9
			dip = 2
		}
		modifier = {
			factor = 0.9
			dip = 3
		}
	}
	
	option = {
		name = "EVTOPTA9012"
		add_adm_power = 20
		add_dip_power = 20
		random_owned_province = {
			limit = {
				religion = shinto
			}
			change_variable = { which = province_religion value = -14 }
			change_variable = { which = catholic value = 14 }
			change_religion = catholic
		}
		remove_country_modifier = western_embassy_mission
	}
	
	option = {
		name = "EVTOPTB9012"
		every_country = {
			limit = {
				has_country_flag = japan_discovered
				technology_group = western
			}
			add_opinion = { who = ROOT modifier = opinion_japan_discovered }
		}
		add_prestige = 5
		add_dip_power = 20
		remove_country_modifier = western_embassy_mission
	}
}

# Local Kirishitans Harrassed
province_event = {
	id = far_east.9014
	title = "EVTNAME9014"
	desc = "EVTDESC9014"
	picture = RELIGION_eventPicture
	
	trigger = {
		owner = {
			religion = shinto
			NOT = { has_country_modifier = jap_kirishitan_harrassed_timer }
		}
		religion = catholic
	}
	
	mean_time_to_happen = {
		months = 500
		modifier = {
			factor = 0.3
			has_global_flag = japan_is_closed
		}
		modifier = {
			factor = 0.8
			owner = { NOT = { innovativeness_ideas = 4 } }
		}
		modifier = {
			factor = 0.8
			owner = { NOT = { innovativeness_ideas = 3 } }
		}
		modifier = {
			factor = 0.8
			owner = { NOT = { innovativeness_ideas = 1 } }
		}
	}
	
	immediate = {
		hidden_effect = {
			owner = {
				add_country_modifier = {
					name = jap_kirishitan_harrassed_timer
					duration = 1825
					hidden = yes
				}
			}
		}
	}
	
	option = {
		name = "EVTOPTA9014"
		random_owned_province = {
			limit = {
				NOT = { has_province_modifier = turmoil_organizing }
			}
			add_province_modifier = {
				name = "turmoil_organizing"
				duration = 1825
			}
			add_unrest = 5
		}
		random_owned_province = {
			limit = {
				NOT = { has_province_modifier = turmoil_organizing }
			}
			add_province_modifier = {
				name = "turmoil_organizing"
				duration = 1825
			}
			add_unrest = 5
		}
		random_owned_province = {
			limit = {
				NOT = { has_province_modifier = turmoil_organizing }
			}
			add_province_modifier = {
				name = "turmoil_organizing"
				duration = 1825
			}
			add_unrest = 5
		}
		random_owned_province = {
			limit = {
				NOT = { has_province_modifier = turmoil_organizing }
			}
			add_province_modifier = {
				name = "turmoil_organizing"
				duration = 1825
			}
			add_unrest = 5
		}
		random_owned_province = {
			limit = {
				NOT = { has_province_modifier = turmoil_organizing }
			}
			add_province_modifier = {
				name = "turmoil_organizing"
				duration = 1825
			}
			add_unrest = 5
		}
		change_variable = { which = province_religion value = -14 }
		change_variable = { which = shinto value = 14 }
		change_religion = shinto
	}
}

# Tempura Introduced
country_event = {
	id = far_east.9016
	title = "EVTNAME9016"
	desc = "EVTDESC9016"
	picture = INVENTION_eventPicture
	
	trigger = {
		OR = {
			government = early_medieval_japanese_gov
			government = late_medieval_japanese_gov
			government = early_modern_japanese_gov
		}
		NOT = { government_rank = 5 }
		has_global_flag = japan_has_encountered_the_west
		NOT = {
			has_global_flag = japan_is_closed
		}
		NOT = {
			has_country_modifier = jap_tempura_timer
		}
	}
	
	mean_time_to_happen = {
		months = 400
		modifier = {
			factor = 0.8
			innovativeness_ideas = 4
		}
		modifier = {
			factor = 0.8
			innovativeness_ideas = 6
		}
		modifier = {
			factor = 1.5
			NOT = { innovativeness_ideas = 4 }
		}	
	}
	
	immediate = {
		hidden_effect = {
			add_country_modifier = {
				name = jap_tempura_timer
				duration = 1825
				hidden = yes
			}
		}
	}
	
	option = {
		name = "EVTOPTA9016"
		add_prestige = 5
	}
	
	option = {
		name = "EVTOPTB9016"
		add_years_of_income = 0.1
	}
}

# Western Arquebuses
country_event = {
	id = far_east.9018
	title = "EVTNAME9018"
	desc = "EVTDESC9018"
	picture = LAND_MILITARY_eventPicture
	
	trigger = {
		OR = {
			government = early_medieval_japanese_gov
			government = late_medieval_japanese_gov
			government = early_modern_japanese_gov
		}
		NOT = { government_rank = 5 }
		has_global_flag = japan_has_encountered_the_west
		NOT = {
			has_global_flag = japan_is_closed
		}
		any_known_country = {
			technology_group = western
		}
		NOT = {
			has_country_modifier = a_batch_of_western_muskets
		}
	}
	
	mean_time_to_happen = {
		months = 500
		modifier = {
			factor = 0.9
			innovativeness_ideas = 4
		}
		modifier = {
			factor = 0.9
			innovativeness_ideas = 6
		}
	}
	
	option = {
		name = "EVTOPTA9018"
		add_country_modifier = {
			name = a_batch_of_western_muskets
			duration = 730
		}
		add_years_of_income = -0.5
	}
	
	option = {
		name = "EVTOPTB9018"
		add_prestige = 5
	}
}

# Kabuki Theatre 
country_event = {
	id = far_east.9020
	title = "EVTNAME9020"
	desc = "EVTDESC9020"
	picture = THEATRE_eventPicture
	
	trigger = {
		OR = {
			government = early_medieval_japanese_gov
			government = late_medieval_japanese_gov
			government = early_modern_japanese_gov
		}
		NOT = { government_rank = 5 }
		NOT = {
			has_country_modifier = jap_kabuki_timer
		}
		is_year = 1600
	}
	
	mean_time_to_happen = {
		months = 400
		modifier = {
			factor = 0.6
			has_idea = patron_of_art
		}
	}
	
	immediate = {
		hidden_effect = {
			add_country_modifier = {
				name = jap_kabuki_timer
				duration = 1825
				hidden = yes
			}
		}
	}
	
	option = {
		name = "EVTOPTA9020"
		add_years_of_income = 0.2
		add_prestige = 5
		add_legitimacy = 5
	}
	
	option = {
		name = "EVTOPTB9020"
		define_advisor = { 
			type = artist
			skill = 2 
			discount = yes
		}
	}
}

# Ronin offers his Service
country_event = {
	id = far_east.9022
	title = "EVTNAME9022"
	desc = "EVTDESC9022"
	picture = MILITARY_CAMP_eventPicture
	
	trigger = {
		OR = {
			government = early_medieval_japanese_gov
			government = late_medieval_japanese_gov
			government = early_modern_japanese_gov
		}
		NOT = { government_rank = 5 }
		NOT = {
			has_country_modifier = jap_ronin_timer
		}
	}
	
	immediate = {
		hidden_effect = {
			add_country_modifier = {
				name = jap_ronin_timer
				duration = 1825
				hidden = yes
			}
		}
	}
	
	mean_time_to_happen = {
		months = 450
		modifier = {
			factor = 0.9
			army_tradition = 10
		}
		modifier = {
			factor = 0.9
			army_tradition = 20
		}
		modifier = {
			factor = 0.9
			army_tradition = 30
		}
		modifier = {
			factor = 1.5
			war_exhaustion = 8
		}
	}
	
	option = {
		name = "EVTOPTA9022"
		add_years_of_income = -0.2
		random_list = {
			10 = {
				create_advisor = statesman
			}
			10 = {
				create_advisor = army_reformer
			}
			10 = {
				create_advisor = spymaster
			}
		}
	}
	
	option = {
		name = "EVTOPTB9022"
		add_army_tradition = 5
	}
	
	option = {
		name = "EVTOPTC9022"
		add_years_of_income = 0.1
	}
}

# Nogaku Play
country_event = {
	id = far_east.9024
	title = "EVTNAME9024"
	desc = "EVTDESC9024"
	picture = THEATRE_eventPicture
	
	trigger = {
		OR = {
			government = early_medieval_japanese_gov
			government = late_medieval_japanese_gov
			government = early_modern_japanese_gov
		}
		NOT = { government_rank = 5 }
		NOT = {
			has_country_modifier = jap_nogaku_timer
		}
	}
	
	immediate = {
		hidden_effect = {
			add_country_modifier = {
				name = jap_nogaku_timer
				duration = 1825
				hidden = yes
			}
		}
	}
	
	mean_time_to_happen = {
		months = 350
		modifier = {
			factor = 0.9
			stability = 1
		}
		modifier = {
			factor = 1.5
			NOT = {
				stability = 0
			}
		}
	}
	
	option = {
		name = "EVTOPTA9024"
		add_prestige = 10
	}
	
	option = {
		name = "EVTOPTB9024"
		add_legitimacy = 10
	}
}

# Karesansui Garden
country_event = {
	id = far_east.9026
	title = "EVTNAME9026"
	desc = "EVTDESC9026"
	picture = ADVISOR_eventPicture
	
	trigger = {
		OR = {
			government = early_medieval_japanese_gov
			government = late_medieval_japanese_gov
			government = early_modern_japanese_gov
		}
		NOT = { government_rank = 5 }
		NOT = {
			any_owned_province = {
				has_province_modifier = karesansui_garden
			}
		}
	}
	
	mean_time_to_happen = {
		months = 450
		modifier = {
			factor = 0.8
			advisor = artist
		}
		modifier = {
			factor = 0.8
			has_idea = patron_of_art
		}
	}
	
	option = {
		name = "EVTOPTA9026"
		random_owned_province = {
			add_province_modifier = {
				name = karesansui_garden
				duration = 18250
			}
		}
		add_years_of_income = -0.5
	}
	
	option = {
		name = "EVTOPTB9026"
		add_prestige = -4
	}
}

# Rewarding Loyal Samurai
country_event = {
	id = far_east.9028
	title = "EVTNAME9028"
	desc = "EVTDESC9028"
	picture = COURT_eventPicture
	
	trigger = {
		OR = {
			government = early_medieval_japanese_gov
			government = late_medieval_japanese_gov
			government = early_modern_japanese_gov
		}
		NOT = { government_rank = 5 }
		army_tradition = 10
		NOT = {
			has_country_modifier = jap_loyal_samurai_timer
		}
	}
	
	immediate = {
		hidden_effect = {
			add_country_modifier = {
				name = jap_loyal_samurai_timer
				duration = 1825
				hidden = yes
			}
		}
	}
	
	mean_time_to_happen = {
		months = 450
		modifier = {
			factor = 0.9
			stability = 1
		}
		modifier = {
			factor = 0.9
			stability = 2
		}
		modifier = {
			factor = 0.9
			army_tradition = 20
		}
		modifier = {
			factor = 1.5
			NOT = {
				stability = 0
			}
		}
	}
	
	option = {
		name = "EVTOPTA9028"
		add_legitimacy = 5
		add_prestige = 5
		add_years_of_income = -0.25
	}
	option = {
		name = "EVTOPTB9028"
		add_legitimacy = -5
		add_prestige = -5
	}
}

# Traveling Monk
country_event = {
	id = far_east.9030
	title = "EVTNAME9030"
	desc = "EVTDESC9030"
	picture = ADVISOR_eventPicture
	
	trigger = {
		religion = shinto
		NOT = {
			has_country_modifier = jap_monk_timer
		}
	}
	
	immediate = {
		hidden_effect = {
			add_country_modifier = {
				name = jap_monk_timer
				duration = 1825
				hidden = yes
			}
		}
	}
	
	mean_time_to_happen = {
		months = 450
		modifier = {
			factor = 0.8
			NOT = { innovativeness_ideas = 4 }
		}
		modifier = {
			factor = 0.8
			NOT = { innovativeness_ideas = 2 }
		}
	}
	
	option = {
		name = "EVTOPTA9030"
		add_years_of_income = -0.25
		add_prestige = 10
	}
	
	option = {
		name = "EVTOPTB9030"
		add_adm_power = -25
	}
}

# Visiting A Shrine
country_event = {
	id = far_east.9032
	title = "EVTNAME9032"
	desc = "EVTDESC9032"
	picture = RELIGION_eventPicture
	
	trigger = {
		religion = shinto
		NOT = {
			has_country_modifier = jap_shrine_timer
		}
	}
	
	immediate = {
		hidden_effect = {
			add_country_modifier = {
				name = jap_shrine_timer
				duration = 1825
				hidden = yes
			}
		}
	}
	
	
	mean_time_to_happen = {
		months = 450
		modifier = {
			factor = 0.8
			NOT = { innovativeness_ideas = 2 }
		}
		modifier = {
			factor = 1.5
			NOT = {
				stability = 0
			}
		}
	}
	
	option = {
		name = "EVTOPTA9032"
		add_adm_power = 50
		add_prestige = -10
		add_legitimacy = -10
	}
	option = {
		name = "EVTOPTB9032"
		add_years_of_income = -0.1
		add_prestige = 10
	}
}

# Cherry Blossom Festival
country_event = {
	id = far_east.9034
	title = "EVTNAME9034"
	desc = "EVTDESC9034"
	picture = MERCHANTS_TALKING_eventPicture
	
	trigger = {
		religion = shinto
		is_month = 0
		NOT = {
			is_month = 5
		}
		NOT = {
			has_country_modifier = jap_hanami_timer
		}
	}
	
	immediate = {
		hidden_effect = {
			add_country_modifier = {
				name = jap_hanami_timer
				duration = 1825
				hidden = yes
			}
		}
	}
	
	mean_time_to_happen = {
		months = 450
		modifier = {
			factor = 1.5
			NOT = {
				stability = 0
			}
		}
	}
	
	option = {
		name = "EVTOPTA9034"
		add_adm_power = 25
		add_prestige = 5
	}
	option = {
		name = "EVTOPTB9034"
		add_years_of_income = 0.5
	}
}

# 1000 Koku Tax
country_event = {
	id = far_east.9036
	title = "EVTNAME9036"
	desc = "EVTDESC9036"
	picture = ECONOMY_eventPicture
	
	trigger = {
		OR = {
			government = early_medieval_japanese_gov
			government = late_medieval_japanese_gov
			government = early_modern_japanese_gov
		}
		NOT = { government_rank = 5 }
		NOT = {
			has_country_modifier = jap_koku_tax_timer
		}
	}
	
	immediate = {
		hidden_effect = {
			add_country_modifier = {
				name = jap_koku_tax_timer
				duration = 1825
				hidden = yes
			}
		}
	}
	
	mean_time_to_happen = {
		months = 450
		modifier = {
			factor = 0.8
			stability = 1
		}
		modifier = {
			factor = 0.9
			stability = 2
		}
		modifier = {
			factor = 0.9
			stability = 3
		}
		modifier = {
			factor = 1.5
			NOT = {
				stability = 0
			}
		}
	}
	
	option = {
		name = "EVTOPTA9036"
		add_years_of_income = 1
		add_adm_power = -25
		add_prestige = -5
	}
	option = {
		name = "EVTOPTB9036"
		add_years_of_income = 0.5
		add_adm_power = -25
		add_prestige = 5
	}
	option = {
		name = "EVTOPTC9036"
		add_prestige = -5
	}
}

# Death of a Geisha
country_event = {
	id = far_east.9038
	title = "EVTNAME9038"
	desc = "EVTDESC9038"
	picture = DEATH_OF_HEIR_eventPicture
	
	trigger = {
		OR = {
			government = early_medieval_japanese_gov
			government = late_medieval_japanese_gov
			government = early_modern_japanese_gov
		}
		NOT = { government_rank = 5 }
		NOT = {
			has_country_modifier = jap_geisha_timer
		}
	}
	
	immediate = {
		hidden_effect = {
			add_country_modifier = {
				name = jap_geisha_timer
				duration = 1825
				hidden = yes
			}
		}
	}
	
	mean_time_to_happen = {
		months = 450
		modifier = {
			factor = 0.9
			NOT = {
				stability = 0
			}
		}
		modifier = {
			factor = 0.9
			NOT = {
				stability = -1
			}
		}
		modifier = {
			factor = 0.9
			NOT = {
				stability = -2
			}
		}
		modifier = {
			factor = 1.5
			stability = 1
		}
		modifier = {
			factor = 1.5
			has_idea = patron_of_art
		}
	}
	
	option = {
		name = "EVTOPTA9038"
		add_adm_power = -25
		add_prestige = 5
	}
	option = {
		name = "EVTOPTB9038"
		add_prestige = -5
	}
}

# The Sharpness of the Tanto
country_event = {
	id = far_east.9040
	title = "EVTNAME9040"
	desc = "EVTDESC9040"
	picture = CIVIL_WAR_eventPicture
	
	trigger = {
		OR = {
			government = early_medieval_japanese_gov
			government = late_medieval_japanese_gov
			government = early_modern_japanese_gov
		}
		NOT = { government_rank = 5 }
		NOT = {
			stability = -2
		}
		has_heir = yes
		NOT = {
			prestige = 0
		}
	}
	
	mean_time_to_happen = {
		months = 450
		modifier = {
			factor = 0.8
			NOT = {
				prestige = -10
			}
		}
		modifier = {
			factor = 0.8
			NOT = {
				legitimacy = 70
			}
		}
		modifier = {
			factor = 0.8
			NOT = {
				legitimacy = 50
			}
		}
	}
	
	option = {
		name = "EVTOPTA9040"
		kill_ruler = yes
		add_stability_1 = yes
		add_prestige = 5
		add_legitimacy = 5
	}
	option = {
		name = "EVTOPTB9040"
		add_legitimacy = -10
		add_prestige = -5
	}
}

# Unruly Daimyo
country_event = {
	id = far_east.9042
	title = "EVTNAME9042"
	desc = "EVTDESC9042"
	picture = ANGRY_MOB_eventPicture
	
	trigger = {
		OR = {
			government = early_medieval_japanese_gov
			government = late_medieval_japanese_gov
			government = early_modern_japanese_gov
		}
		NOT = { government_rank = 5 }
		NOT = {
			legitimacy = 60
		}
		any_known_country = {
			vassal_of = ROOT
		}
		NOT = {
			has_country_modifier = jap_unruly_daimyo_timer
		}
	}
	
	immediate = {
		hidden_effect = {
			add_country_modifier = {
				name = jap_unruly_daimyo_timer
				duration = 1825
				hidden = yes
			}
		}
	}
	
	mean_time_to_happen = {
		months = 650
		modifier = {
			factor = 0.8
			NOT = {
				legitimacy = 50
			}
		}
		modifier = {
			factor = 0.8
			NOT = {
				legitimacy = 40
			}
		}
		modifier = {
			factor = 1.5
			stability = 1
		}
	}
	
	option = {
		name = "EVTOPTA9042"
		decrease_centralisation = yes
		add_prestige = -5
	}
	
	option = {
		name = "EVTOPTB9042"
		random_owned_province = {
			limit = {
				NOT = { has_province_modifier = nationalists_organizing }
			}
			add_province_modifier = {
				name = "nationalists_organizing"
				duration = 1825
			}
			add_unrest = 5
		}
		random_owned_province = {
			limit = {
				NOT = { has_province_modifier = nationalists_organizing }
			}
			add_province_modifier = {
				name = "nationalists_organizing"
				duration = 1825
			}
			add_unrest = 5
		}
		random_owned_province = {
			limit = {
				NOT = { has_province_modifier = nationalists_organizing }
			}
			add_province_modifier = {
				name = "nationalists_organizing"
				duration = 1825
			}
			add_unrest = 5
		}
		add_legitimacy = 5
		add_prestige = 5
	}
}

# Koku Reform
country_event = {
	id = far_east.9044
	title = "EVTNAME9044"
	desc = "EVTDESC9044"
	picture = REFORM_eventPicture
	
	trigger = {
		OR = {
			government = early_medieval_japanese_gov
			government = late_medieval_japanese_gov
			government = early_modern_japanese_gov
		}
		NOT = { government_rank = 5 }
		inflation = 10
		NOT = {
			has_country_modifier = jap_koku_reform_timer
		}
	}
	
	immediate = {
		hidden_effect = {
			add_country_modifier = {
				name = jap_koku_reform_timer
				duration = 1825
				hidden = yes
			}
		}
	}
	
	mean_time_to_happen = {
		months = 450
		modifier = {
			factor = 0.9
			inflation = 15
		}
		modifier = {
			factor = 0.9
			inflation = 20
		}
		modifier = {
			factor = 0.9
			inflation = 25
		}
		modifier = {
			factor = 1.5
			stability = 1
		}
		modifier = {
			factor = 1.5
			stability = 2
		}
	}
	
	option = {
		name = "EVTOPTA9044"
		create_advisor = master_of_mint
		add_years_of_income = 0.4
	}
	
	option = {
		name = "EVTOPTB9044"
		add_inflation = -4
		add_absolutism = 10
	}
}

# Rangaku
country_event = {
	id = far_east.9046
	title = "EVTNAME9046"
	desc = "EVTDESC9046"
	picture = MERCHANTS_TALKING_eventPicture
	
	trigger = {
		OR = {
			government = early_medieval_japanese_gov
			government = late_medieval_japanese_gov
			government = early_modern_japanese_gov
		}
		NOT = { government_rank = 5 }
		has_global_flag = japan_has_encountered_the_west
		any_known_country = {
			technology_group = western
			religion_group = christian
		}
		NOT = {
			has_global_flag = japan_is_closed
		}
		NOT = {
			has_country_modifier = jap_rangaku_timer
		}
	}
	
	immediate = {
		hidden_effect = {
			add_country_modifier = {
				name = jap_rangaku_timer
				duration = 1825
				hidden = yes
			}
		}
	}
	
	mean_time_to_happen = {
		months = 550
		modifier = {
			factor = 0.5
			is_year = 1700
		}
		modifier = {
			factor = 0.8
			innovativeness_ideas = 4
		}
		modifier = {
			factor = 0.8
			innovativeness_ideas = 6
		}
		modifier = {
			factor = 1.5
			NOT = {
				mercantilism = 50
			}
		}
		modifier = {
			factor = 1.5
			NOT = {
				mercantilism = 30
			}
		}
	}
	
	option = {
		name = "EVTOPTA9046"
		add_country_modifier = {
			name = freetrade_modifier
			duration = 3650
		}
		subtract_stability_1 = yes
		add_mil_power = 40
		add_adm_power = 40
		add_years_of_income = -0.3
	}
	
	option = {
		name = "EVTOPTB9046"
		add_dip_power = 25
		add_adm_power = 10
		add_prestige = 5
	}
}

# Rice Crops fail
country_event = {
	id = far_east.9050
	title = "EVTNAME9050"
	desc = "EVTDESC9050"
	picture = PLAGUE_eventPicture
	
	trigger = {
		OR = {
			government = early_medieval_japanese_gov
			government = late_medieval_japanese_gov
			government = early_modern_japanese_gov
		}
		NOT = { government_rank = 5 }
		NOT = {
			has_country_modifier = jap_rice_fail_timer
		}
	}
	
	immediate = {
		hidden_effect = {
			add_country_modifier = {
				name = jap_rice_fail_timer
				duration = 1825
				hidden = yes
			}
		}
	}
	
	mean_time_to_happen = {
		months = 450
		modifier = {
			factor = 0.8
			NOT = {
				stability = -2
			}
		}
		modifier = {
			factor = 0.8
			NOT = {
				stability = -1
			}
		}
		modifier = {
			factor = 1.5
			stability = 1
		}
	}
	
	option = {
		name = "EVTOPTA9050"
		subtract_stability_1 = yes
	}
	option = {
		name = "EVTOPTB9050"
		add_years_of_income = -0.5
	}
}
