country_decisions = {
	join_the_albania_princes = {
		major = yes
		potential = {
			tag = ALC
			exists = yes
			ALB = { exists = yes }
			is_neighbor_of = ALB
			ai = yes
		}
		allow = {
			NOT = { dynasty = "d'Anjou" }
		}
		effect = {
			ALB = { country_event = { id = flavor_alb.001 days = 1 } }
		}
		ai_will_do = {
			factor = 1
		}
		ai_importance = 400
	}
}
