country_decisions = {
	
	expand_southward_inca = {
		major = yes
		potential = {
			religion = inti
			is_colonial_nation = no
			NOT = { has_country_flag = expand_southward_inca }
			owns = 2068 # Cuzco
			NOT = {
				OR = {
					3423 = { is_city = yes } # Aymara
					3428 = { is_city = yes } # Chumpivilca
					3429 = { is_city = yes } # Parinacocha
				}
			}
		}
		allow = {
			treasury = 100
			absolutism = 10
			OR = {
				owns = 2340 # Chiquito
				owns = 3424 # Yanahuara
			}
			legitimacy = 75
			stability = 0
			OR = { DIP = 3 MIL = 3 advisor = diplomat advisor = commandant }
		}
		effect = {
			country_event = { id = flavor_inc.51 days = 1 }
			add_adm_power = -15
			set_country_flag = expand_southward_inca
		}
		ai_will_do = {
			factor = 1
		}
	}
	
	expand_coastward_inca = {
		major = yes
		potential = {
			religion = inti
			is_colonial_nation = no
			NOT = { has_country_flag = expand_coastward_inca }
			owns = 3429 # Parinacocha
			NOT = {
				OR = {
					3430 = { is_city = yes } # Yauca
					3431 = { is_city = yes } # Atico
				}
			}
		}
		allow = {
			treasury = 75
			absolutism = 10
			legitimacy = 75
			stability = 0
			OR = { DIP = 3 MIL = 3 advisor = diplomat advisor = commandant }
		}
		effect = {
			country_event = { id = flavor_inc.51 days = 1 }
			add_adm_power = -15
			set_country_flag = expand_coastward_inca
		}
		ai_will_do = {
			factor = 1
		}
	}
	expand_arequipa_inca = {
		major = yes
		potential = {
			religion = inti
			is_colonial_nation = no
			NOT = { has_country_flag = expand_arequipa_inca }
			OR = {
				owns = 2343 # Paria
				owns = 3428 # Chumpivilca
			}
			NOT = {
				OR = {
					2339 = { is_city = yes } # Arequipa
					3432 = { is_city = yes } # Aymara
				}
			}
		}
		allow = {
			treasury = 150
			absolutism = 10
			legitimacy = 70
			stability = 1
			OR = { DIP = 4 MIL = 4 advisor = diplomat advisor = commandant }
		}
		effect = {
			country_event = { id = flavor_inc.51 days = 1 }
			add_adm_power = -15
			set_country_flag = expand_arequipa_inca
		}
		ai_will_do = {
			factor = 1
		}
	}
	expand_caruma_inca = {
		major = yes
		potential = {
			religion = inti
			is_colonial_nation = no
			NOT = { has_country_flag = expand_caruma_inca }
			owns = 3435 # Lupaca
			NOT = {
				OR = {
					3433 = { is_city = yes } # Moquehua
					3434 = { is_city = yes } # Caruma
				}
			}
		}
		allow = {
			treasury = 100
			absolutism = 10
			legitimacy = 70
			stability = 1
			OR = { DIP = 4 MIL = 4 advisor = diplomat advisor = commandant }
		}
		effect = {
			country_event = { id = flavor_inc.51 days = 1 }
			add_adm_power = -15
			set_country_flag = expand_caruma_inca
		}
		ai_will_do = {
			factor = 1
		}
	}
	expand_hatun_kanar_inca = {
		major = yes
		potential = {
			religion = inti
			is_colonial_nation = no
			NOT = { has_country_flag = expand_hatun_kanar_inca }
			owns = 3410 # Huancapampa
			has_country_modifier = title_6
			NOT = {
				OR = {
					796 = { is_city = yes } # Hatun Canar
					798 = { is_city = yes } # Chuquimayo
				}
			}
		}
		allow = {
			treasury = 150
			absolutism = 10
			legitimacy = 70
			stability = 0
			OR = { DIP = 4 MIL = 4 advisor = diplomat advisor = commandant }
		}
		effect = {
			country_event = { id = flavor_inc.51 days = 1 }
			add_adm_power = -15
			set_country_flag = expand_hatun_kanar_inca
		}
		ai_will_do = {
			factor = 1
		}
	}
	expand_huancabamba_inca = {
		major = yes
		potential = {
			religion = inti
			is_colonial_nation = no
			NOT = { has_country_flag = expand_hatun_kanar_inca }
			owns = 811 # Kasha Marka
			has_country_modifier = title_6
			NOT = {
				OR = {
					3409 = { is_city = yes } # Ayavaca
					3410 = { is_city = yes } # Huancapampa
				}
			}
		}
		allow = {
			treasury = 150
			absolutism = 10
			legitimacy = 70
			stability = 0
			OR = { DIP = 4 MIL = 4 advisor = diplomat advisor = commandant }
		}
		effect = {
			country_event = { id = flavor_inc.51 days = 1 }
			add_adm_power = -15
			set_country_flag = expand_huancabamba_inca
		}
		ai_will_do = {
			factor = 1
		}
	}
	claim_the_andes = {
		major = yes
		potential = {
			religion = inti
			tag = CZC
			NOT = { exists = AYA }
			owns = 2067 # Vilcashuaman
			owns = 2068 # Cuzco
			owns = 3421 # Angara
			NOT = { has_country_flag = claim_the_andes }
			NOT = {
				OR = {
					owns = 811 # Kasha Marka
					owns = 813 # Panatahuas
					owns = 819 # Huanuco
					owns = 820 # Huancayo
					owns = 3412 # Huamachugo
					owns = 3413 # Huayla
					owns = 3415 # Cajatampo
					owns = 3416 # Chinchaycocha
					owns = 3419 # Yauyo
				}
			}
		}
		allow = {
			treasury = 100
			OR = {
				dip = 3
				mil = 3
			}
			absolutism = 10
			legitimacy = 90
			stability = 1
		}
		effect = {
			811 = { add_permanent_claim = CZC } # Kasha Marka
			813 = { add_permanent_claim = CZC } # Panatahuas
			819 = { add_permanent_claim = CZC } # Huanuco
			820 = { add_permanent_claim = CZC } # Huancayo
			3412 = { add_permanent_claim = CZC } # Huamachugo
			3413 = { add_permanent_claim = CZC } # Huayla
			3415 = { add_permanent_claim = CZC } # Cajatampo
			3416 = { add_permanent_claim = CZC } # Chinchaycocha
			3419 = { add_permanent_claim = CZC } # Yauyo
			add_adm_power = -25
			add_dip_power = -25
			set_country_flag = claim_the_andes
		}
		ai_will_do = {
			factor = 1
		}
	}
}
