country_decisions = {
	
	union_of_florence = {
		potential = {
			religion = orthodox
			NOT = { has_country_flag = union_of_florence } #Can only do this once
			NOT = { government = theocracy }
			NOT = { is_religion_enabled = protestant }
		}
		allow = {
			OR = {
				is_free_or_tributary_trigger = yes
				overlord = { religion = catholic }
			}
			custom_trigger_tooltip = {
				tooltip = papal_authority_400
				PAP = { check_variable = { which = papal_authority value = 400 } }
			}
			custom_trigger_tooltip = {
				tooltip = church_council_happening
				PAP = { has_country_flag = church_council }
			}
			is_defender_of_faith = no
			is_force_converted = no
		}
		effect = {
			dg_reduce_prestige = yes
			if = {
				limit = { at_war_with_religious_enemy = yes }
				hidden_effect = {
					PAP = { set_country_flag = crusade_called }
					set_country_flag = crusade_sponsor
					capital_scope = {
						set_province_flag = crusade_goal
					}
				}
				country_event = { id = dg_catholic.044 days = 0 }
			}
			hidden_effect = {
				if = {
					limit = { NOT = { at_war_with_religious_enemy = yes } }
					set_country_flag = crusade_promised
				}
			}
			custom_tooltip = promise_to_convert_catholic
			set_country_flag = union_of_florence
		}
		ai_will_do = {
			factor = 1
			modifier = {
				num_of_cities = 5 #Will not accept such a humiliation
				factor = 0
			}
			modifier = { #Threatened by infidels
				NOT = { any_neighbor_country = { NOT = { religion_group = christian } num_of_cities = ROOT } }
				factor = 0
			}
			modifier = { #Doing well without help
				war_score = 10
				factor = 0
			}
			modifier = {
				any_neighbor_country = { religion = orthodox }
				factor = 0
			}
		}
	}
	
	union_of_florence_promise = {
		potential = {
			has_country_flag = union_of_florence
			religion = orthodox
		}
		allow = {
			NOT = { is_force_converted = yes }
			OR = {
				is_free_or_tributary_trigger = yes
				overlord = { religion = catholic }
			}
		}
		effect = {
			clr_country_flag = union_of_florence
			set_country_flag = voluntary_conversion
			if = {
				limit = { NOT = { is_religion_enabled = catholic } }
				custom_tooltip = convert_dangerous_religion
				subtract_stability_1 = yes
			}
			if = {
				limit = {
					NOT = { capital_scope = { check_variable = { which = catholic_population value = 25 } } }
				}
				custom_tooltip = convert_population_0
				subtract_stability_2 = yes
			}
			if = {
				limit = {
					capital_scope = { check_variable = { which = catholic_population value = 25   } }
					NOT = { capital_scope = { check_variable = { which = catholic_population value = 50 } } }
				}
				custom_tooltip = convert_population_25
				subtract_stability_1 = yes
			}
			if = {
				limit = {
					capital_scope = { check_variable = { which = catholic_population value = 50 } }
					NOT = { capital_scope = { check_variable = { which = catholic_population value = 75 } } }
				}
				custom_tooltip = convert_population_50
			}
			if = {
				limit = {
					capital_scope = { check_variable = { which = catholic_population value = 50 } }
					capital_scope = { check_variable = { which = catholic_population value = 75   } }
				}
				custom_tooltip = convert_population_75
				add_stability_1 = yes
			}
			if = {
				limit = { patriarch_authority = 0.75 }
				custom_tooltip = convert_church_strong
				subtract_stability_2 = yes
			}
			if = {
				limit = {
					patriarch_authority = 0.50
					NOT = { patriarch_authority = 0.75 }
				}
				custom_tooltip = convert_piety_moderate
				subtract_stability_1 = yes
			}
			if = {
				limit = {
					patriarch_authority = 0.25
					NOT = { patriarch_authority = 0.50 }
				}
				custom_tooltip = convert_church_weak
			}
			if = {
				limit = { NOT = { patriarch_authority = 0.25 } }
				custom_tooltip = convert_church_insignificant
			}
			if = {
				limit = {
					NOT = { capital_scope = { religion = catholic } }
					NOT = { ADM = 3 }
				}
				custom_tooltip = convert_ruler_incompetent
			}
			if = {
				limit = {
					capital_scope = { religion = catholic }
					NOT = { ADM = 3 }
				}
				custom_tooltip = convert_ruler_weak
				add_stability_1 = yes
			}
			if = {
				limit = {
					NOT = { capital_scope = { religion = catholic } }
					ADM = 3
					NOT = { ADM = 5 }
				}
				custom_tooltip = convert_ruler_weak
				add_stability_1 = yes
			}
			if = {
				limit = {
					capital_scope = { religion = catholic }
					ADM = 3
					NOT = { ADM = 5 }
				}
				custom_tooltip = convert_ruler_moderate
				add_stability_2 = yes
			}
			if = {
				limit = {
					NOT = { capital_scope = { religion = catholic } }
					ADM = 5
				}
				custom_tooltip = convert_ruler_moderate
				add_stability_2 = yes
			}
			if = {
				limit = {
					capital_scope = { religion = catholic }
					ADM = 5
				}
				custom_tooltip = convert_ruler_strong
				add_stability_3 = yes
			}
			if = {
				limit = { advisor = theologian }
				custom_tooltip = convert_theologian
				add_stability_1 = yes
			}
			if = {
				limit = {
					NOT = { has_country_flag = was_catholic }
					check_variable = { which = sympathy_to_old_religion value = 1 }
				}
				custom_tooltip = convert_recent
				add_stability_1 = yes
			}
			if = {
				limit = {
					has_country_flag = was_catholic
					NOT = { check_variable = { which = sympathy_to_old_religion value = 1 } }
				}
				custom_tooltip = convert_previous_old
				add_stability_1 = yes
			}
			if = {
				limit = {
					has_country_flag = was_catholic
					check_variable = { which = sympathy_to_old_religion value = 1 }
				}
				custom_tooltip = convert_previous_recent
				add_stability_2 = yes
			}
			hidden_effect = {
				every_owned_province = {
					if = {
						limit = {
							religion = orthodox
						}
						change_variable = { which = province_religion value = -8 }
						change_variable = { which = catholic value = 8 }
					}
					else_if = {
						limit = {
							check_variable = { which = orthodox value = 8 }
						}
						change_variable = { which = orthodox value = -4 }
						change_variable = { which = catholic value = 4 }
					}
					else_if = {
						limit = {
							check_variable = { which = orthodox value = 6 }
						}
						change_variable = { which = orthodox value = -2 }
						change_variable = { which = catholic value = 2 }
					}
				}
			}
			custom_tooltip = catholic_40
			change_religion = catholic
			add_country_modifier = { name = religious_controversy duration = 4000 }
		}
		ai_will_do = {
			factor = 0
		}
	}
	
	request_autonomy = {
		
		potential = {
			OR = {
				religion = orthodox
				religion = coptic
			}
			NOT = { any_owned_province = { has_province_modifier = orthodox_patriarchate } }
			NOT = { any_owned_province = { has_province_modifier = coptic_patriarchate } }
			NOT = { has_country_flag = religious_autonomy }
			is_force_converted = no
			any_country = {
				overlord_of = ROOT
				OR = { religion = orthodox religion = coptic }
				OR = {
					any_owned_province = { has_province_modifier = orthodox_patriarchate }
					any_owned_province = { has_province_modifier = coptic_patriarchate }
				}
			}
			NOT = { has_country_flag = autonomy_attempt }
		}
		allow = {
			is_at_war = no
			OR = {
				advisor = theologian
				DIP = 4
			}
			adm_power = 25
		}
		effect = {
			add_adm_power = -25
			hidden_effect = { set_country_flag = autonomy_attempt }
			random_country = {
				limit = { overlord_of = ROOT }
				country_event = { id = dg_orthodox.031 days = 90 }
			}
		}
		ai_will_do = {
			factor = 1
			modifier = {
				religious_unity = 1.00
				factor = 0
			}
		}
	}
	
	seek_elders_blessing = {
		
		potential = {
			religion = orthodox
			any_owned_province = { has_province_modifier = anchorite_hermitage }
			NOT = { has_country_flag = elders_blessing_sought } #Removed with new ruler
			piety = -0.60
		}
		allow = {
			has_regency = no
			is_at_war = no
			any_owned_province = { has_province_modifier = anchorite_hermitage }
		}
		effect = {
			add_country_modifier = { name = ruler_pilgrimage duration = 50 }
			hidden_effect = {
				set_country_flag = seeking_elders_blessing
				set_country_flag = elders_blessing_sought
			}
		}
		ai_will_do = {
			factor = 1
			modifier = {
				num_of_revolts = 1
				factor = 0
			}
			modifier = {
				stability = 1
				legitimacy = 100
				prestige = 25
				NOT = { war_exhaustion = 2 }
				factor = 0
			}
		}
	}
	
	replace_patriarch = {
		potential = {
			OR = {
				religion = orthodox
				religion = coptic
			}
			any_owned_province = { OR = { has_province_modifier = orthodox_patriarchate has_province_modifier = coptic_patriarchate } }
			has_country_flag = patriarch_appointed
			had_country_flag = { flag = patriarch_appointed days = 1000 }
			NOT = { has_country_flag = holy_synod }
		}
		allow = {
			adm_power = 10
		}
		effect = {
			clr_country_flag = clerical_advisor
			clr_country_flag = patriarch_zealous
			clr_country_flag = patriarch_theologian
			clr_country_flag = patriarch_obedient
			clr_country_flag = patriarch_controversial
			clr_country_flag = patriarch_corrupt
			clr_country_flag = patriarch_hostile
			clr_country_flag = patriarch_appointed
			remove_country_modifier = patriarch_zealous_fanatical
			remove_country_modifier = patriarch_zealous_pious
			remove_country_modifier = patriarch_zealous_observant
			remove_country_modifier = patriarch_theologian_fanatical
			remove_country_modifier = patriarch_theologian_pious
			remove_country_modifier = patriarch_theologian_observant
			remove_country_modifier = patriarch_obedient_fanatical
			remove_country_modifier = patriarch_obedient_pious
			remove_country_modifier = patriarch_obedient_observant
			remove_country_modifier = patriarch_controversial_fanatical
			remove_country_modifier = patriarch_controversial_pious
			remove_country_modifier = patriarch_controversial_observant
			remove_country_modifier = patriarch_corrupt_fanatical
			remove_country_modifier = patriarch_corrupt_pious
			remove_country_modifier = patriarch_corrupt_observant
			remove_country_modifier = patriarch_hostile_fanatical
			remove_country_modifier = patriarch_hostile_pious
			remove_country_modifier = patriarch_hostile_observant
			add_adm_power = -10
			if = {
				limit = { patriarch_authority = 0.80 }
				add_country_modifier = { name = unhappy_church_powerful duration = 1000 }
			}
			if = {
				limit = { patriarch_authority = 0.60 NOT = { patriarch_authority = 0.80 } }
				add_country_modifier = { name = unhappy_church_strong duration = 1000 }
			}
			if = {
				limit = { patriarch_authority = 0.40 NOT = { patriarch_authority = 0.60 } }
				add_country_modifier = { name = unhappy_church_moderate duration = 1000 }
			}
			if = {
				limit = { patriarch_authority = 0.20 NOT = { patriarch_authority = 0.40 } }
				add_country_modifier = { name = unhappy_church_weak duration = 1000 }
			}
			if = {
				limit = { NOT = { patriarch_authority = 0.20 } }
				add_country_modifier = { name = unhappy_church_impotent duration = 1000 }
			}
			random_owned_province = {
				limit = { OR = { has_province_modifier = orthodox_patriarchate has_province_modifier = coptic_patriarchate } }
				province_event = { id = dg_orthodox.026 days = 0 }
			}
		}
		ai_will_do = {
			factor = 1
			modifier = {
				OR = {
					has_country_flag = patriarch_theologian
					has_country_flag = patriarch_zealous
					has_country_flag = patriarch_obedient
					has_country_flag = patriarch_controversial
				}
				factor = 0
			}
			modifier = {
				OR = {
					has_country_flag = patriarch_hostile
					has_country_flag = patriarch_corrupt
				}
				NOT = { piety = -0.20 }
				factor = 0
			}
			modifier = {
				has_country_flag = patriarchate_vacant
				NOT = { piety = 0.20 }
				factor = 0
			}
		}
	}
	
	holy_synod = {
		potential = {
			has_country_flag = patriarchate_vacant
			NOT = { has_country_flag = holy_synod }
			religion = orthodox
			any_owned_province = { OR = { has_province_modifier = orthodox_patriarchate has_province_modifier = coptic_patriarchate } }
		}
		allow = {
			adm_power = 50
		}
		effect = {
			custom_tooltip = holy_synod_explained
			set_country_flag = holy_synod
			if = {
				limit = { advisor = theologian }
				add_adm_power = -25
			}
			if = {
				limit = { NOT = { advisor = theologian } }
				add_adm_power = -50
			}
		}
		ai_will_do = {
			factor = 1
		}
	}
	
	uniate_church = {
		potential = {
			religion = catholic
			any_known_country = { has_country_flag = uniate_church } #First one is by event
			check_variable = { which = jesuit_support value = 1 }
			any_owned_province = {
				check_variable = { which = orthodox value = 4 }
				is_core = owner
				NOT = { has_missionary = yes }
			}
			NOT = { has_country_flag = uniate_church_proposed }
			NOT = { has_country_flag = uniate_church }
		}
		allow = {
			orthodox = 1
			adm_power = 100
		}
		effect = {
			add_adm_power = -100
			set_country_flag = uniate_church
			custom_tooltip = uniate_church_explained
		}
		ai_will_do = {
			factor = 1
			modifier = {
				NOT = { num_of_religion = { religion = orthodox value = 0.20 } }
				factor = 0
			}
		}
	}
	
	hundred_chapter_synod = {
		potential = {
			religion = orthodox
			NOT = { has_country_flag = religious_courts }
			num_of_cities = 10
		}
		allow = {
			custom_trigger_tooltip = {
				OR = {
					has_country_flag = patriarch_obedient
					has_country_flag = patriarch_theologian
					has_country_flag = patriarch_zealous
					has_country_flag = patriarch_corrupt
				}
				tooltip = cooperative_patriarch
			}
			OR = {
				advisor = theologian
				DIP = 5
			}
		}
		effect = {
			set_country_flag = religious_courts
			add_patriarch_authority = 0.10
			add_stability_1 = yes
		}
		ai_will_do = {
			factor = 1
			modifier = {
				religious_unity = 0.80
				factor = 0
			}
		}
	}
	
	request_autocephaly = {
		potential = {
			OR = {
				religion = orthodox
				religion = coptic
			}
			NOT = { any_owned_province = { has_province_flag = orthodox_patriarchate } }
			NOT = { any_owned_province = { has_province_modifier = orthodox_patriarchate } }
			NOT = { any_owned_province = { has_province_flag = coptic_patriarchate } }
			NOT = { any_owned_province = { has_province_modifier = coptic_patriarchate } }
			is_force_converted = no
			NOT = { has_country_flag = autonomy_attempt }
			NOT = { any_country = { reverse_has_opinion_modifier = { who = ROOT modifier = denied_autocephaly } } }
		}
		allow = {
			government_rank = 2
			total_development = 150
			is_free_or_tributary_trigger = yes
			is_at_war = no
			prestige = 25
			stability = 1
			OR = {
				advisor = theologian
				DIP = 4
				total_development = 600
				government_rank = 3
			}
		}
		effect = {
			set_country_flag = autonomy_attempt
			add_treasury = -50
			if = {
				limit = { #The Ecumenical Patriarch of Constantinople
					religion = orthodox
					capital_scope = {
						NOT = { asia_continent_trigger = yes }
						NOT = { africa_continent_trigger = yes }
						NOT = { western_europe_trigger = yes }
					}
				}
				constantinople_patriarch_area = {
					limit = {
						has_province_flag = orthodox_patriarch_of_constantinople
					}
					if = {
						limit = {
							OR = {
								has_province_modifier = orthodox_patriarchate
								has_province_modifier = orthodox_pentarchy
								has_province_modifier = orthodox_archbishopric
								has_province_modifier = orthodox_patriarchate_captive
							}
						}
						owner = { country_event = { id = dg_orthodox.034 days = 60 } }
					}
				}
				every_country = {
					limit = {
						NOT = { constantinople_patriarch_area = { has_province_flag = orthodox_patriarch_of_constantinople owned_by = PREV } }
						any_owned_province = {
							OR = {
								has_province_modifier = orthodox_patriarchate
								has_province_modifier = orthodox_pentarchy
								has_province_modifier = orthodox_archbishopric
								has_province_modifier = orthodox_patriarchate_captive
							}
						}
					}
					country_event = { id = dg_orthodox.034 days = 120 }
				}
			}
			if = {
				limit = { #The Ecumenical Patriarch of Rome
					religion = orthodox
					capital_scope = {
						continent = europe
						western_europe_trigger = yes
					}
				}
				rome_patriarch_area = {
					limit = {
						has_province_flag = orthodox_patriarch_of_rome
					}
					if = {
						limit = {
							OR = {
								has_province_modifier = orthodox_patriarchate
								has_province_modifier = orthodox_pentarchy
								has_province_modifier = orthodox_archbishopric
								has_province_modifier = orthodox_patriarchate_captive
							}
						}
						owner = { country_event = { id = dg_orthodox.034 days = 60 } }
					}
				}
				every_country = {
					limit = {
						NOT = { rome_patriarch_area = { has_province_flag = orthodox_patriarch_of_rome owned_by = PREV } }
						any_owned_province = {
							OR = {
								has_province_modifier = orthodox_patriarchate
								has_province_modifier = orthodox_pentarchy
								has_province_modifier = orthodox_archbishopric
								has_province_modifier = orthodox_patriarchate_captive
							}
						}
					}
					country_event = { id = dg_orthodox.034 days = 120 }
				}
			}
			if = {
				limit = { #The Ecumenical Patriarch of Antioch
					religion = orthodox
					capital_scope = { asia_continent_trigger = yes }
				}
				antioch_patriarch_area = {
					limit = {
						has_province_flag = orthodox_patriarch_of_antioch
					}
					if = {
						limit = {
							OR = {
								has_province_modifier = orthodox_patriarchate
								has_province_modifier = orthodox_pentarchy
								has_province_modifier = orthodox_archbishopric
								has_province_modifier = orthodox_patriarchate_captive
							}
						}
						owner = { country_event = { id = dg_orthodox.034 days = 60 } }
					}
				}
				every_country = {
					limit = {
						NOT = { antioch_patriarch_area = { has_province_flag = orthodox_patriarch_of_antioch owned_by = PREV } }
						any_owned_province = {
							OR = {
								has_province_modifier = orthodox_patriarchate
								has_province_modifier = orthodox_pentarchy
								has_province_modifier = orthodox_archbishopric
								has_province_modifier = orthodox_patriarchate_captive
							}
						}
					}
					country_event = { id = dg_orthodox.034 days = 120 }
				}
			}
			if = {
				limit = { #The Ecumenical Patriarch of Alexandria
					religion = orthodox
					capital_scope = { africa_continent_trigger = yes }
				}
				alexandria_patriarch_area = {
					limit = {
						has_province_flag = orthodox_patriarch_of_alexandria
					}
					if = {
						limit = {
							OR = {
								has_province_modifier = orthodox_patriarchate
								has_province_modifier = orthodox_pentarchy
								has_province_modifier = orthodox_archbishopric
								has_province_modifier = orthodox_patriarchate_captive
							}
						}
						owner = { country_event = { id = dg_orthodox.034 days = 60 } }
					}
				}
				every_country = {
					limit = {
						NOT = { alexandria_patriarch_area = { has_province_flag = orthodox_patriarch_of_alexandria owned_by = PREV } }
						any_owned_province = {
							OR = {
								has_province_modifier = orthodox_patriarchate
								has_province_modifier = orthodox_pentarchy
								has_province_modifier = orthodox_archbishopric
								has_province_modifier = orthodox_patriarchate_captive
							}
						}
					}
					country_event = { id = dg_orthodox.034 days = 120 }
				}
			}
			if = {
				limit = { #The Catholicos of Alexandria
					religion = coptic
					capital_scope = { NOT = { continent = europe } NOT = { continent = mena } }
				}
				alexandria_patriarch_area = {
					limit = {
						has_province_flag = miaphysite_catholicos_of_alexandria
					}
					if = {
						limit = {
							OR = {
								has_province_modifier = coptic_patriarchate
								has_province_modifier = coptic_pentarchy
								has_province_modifier = coptic_archbishopric
								has_province_modifier = coptic_patriarchate_captive
							}
						}
						owner = { country_event = { id = dg_orthodox.034 days = 60 } }
					}
				}
				every_country = {
					limit = {
						NOT = { alexandria_patriarch_area = { has_province_flag = miaphysite_catholicos_of_alexandria owned_by = PREV } }
						any_owned_province = {
							OR = {
								has_province_modifier = coptic_patriarchate
								has_province_modifier = coptic_pentarchy
								has_province_modifier = coptic_archbishopric
								has_province_modifier = coptic_patriarchate_captive
							}
						}
					}
					country_event = { id = dg_orthodox.034 days = 120 }
				}
			}
			if = {
				limit = { #The Catholicos of Antioch
					religion = coptic
					capital_scope = { continent = europe }
				}
				antioch_patriarch_area = {
					limit = {
						has_province_flag = miaphysite_catholicos_of_antioch
					}
					if = {
						limit = {
							OR = {
								has_province_modifier = coptic_patriarchate
								has_province_modifier = coptic_pentarchy
								has_province_modifier = coptic_archbishopric
								has_province_modifier = coptic_patriarchate_captive
							}
						}
						owner = { country_event = { id = dg_orthodox.034 days = 60 } }
					}
				}
				every_country = {
					limit = {
						NOT = { antioch_patriarch_area = { has_province_flag = miaphysite_catholicos_of_antioch owned_by = PREV } }
						any_owned_province = {
							OR = {
								has_province_modifier = coptic_patriarchate
								has_province_modifier = coptic_pentarchy
								has_province_modifier = coptic_archbishopric
								has_province_modifier = coptic_patriarchate_captive
							}
						}
					}
					country_event = { id = dg_orthodox.034 days = 120 }
				}
			}
		}
		ai_will_do = {
			factor = 1
			modifier = {
				NOT = { treasury = 100 }
				factor = 0
			}
			modifier = {
				religion = orthodox
				capital_scope = { africa_continent_trigger = yes }
				alexandria_patriarch_area = {
					has_province_flag = orthodox_patriarch_of_alexandria
					owner = { religion = orthodox army_size = ROOT }
				}
				factor = 0
			}
			modifier = {
				religion = orthodox
				capital_scope = { asia_continent_trigger = yes }
				antioch_patriarch_area = {
					has_province_flag = orthodox_patriarch_of_antioch
					owner = { religion = orthodox army_size = ROOT }
				}
				factor = 0
			}
			modifier = {
				religion = orthodox
				capital_scope = { western_europe_trigger = yes }
				rome_patriarch_area = {
					has_province_flag = orthodox_patriarch_of_rome
					owner = { religion = orthodox army_size = ROOT }
				}
				factor = 0
			}
			modifier = {
				religion = orthodox
				capital_scope = { NOT = { africa_continent_trigger = yes asia_continent_trigger = yes western_europe_trigger = yes } }
				constantinople_patriarch_area = {
					has_province_flag = orthodox_patriarch_of_constantinople
					owner = { religion = orthodox army_size = ROOT }
				}
				factor = 0
			}
			modifier = {
				religion = coptic
				capital_scope = { continent = europe }
				antioch_patriarch_area = {
					has_province_flag = miaphysite_catholicos_of_antioch
					owner = { religion = coptic army_size = ROOT }
				}
				factor = 0
			}
			modifier = {
				religion = coptic
				capital_scope = { NOT = { continent = europe } NOT = { continent = mena } }
				alexandria_patriarch_area = {
					has_province_flag = miaphysite_catholicos_of_alexandria
					owner = { religion = coptic army_size = ROOT }
				}
				factor = 0
			}
		}
	}
	
	accept_patriarch_authority = {
		potential = {
			OR = {
				religion = catholic
				religion = gnostic
			}
			is_force_converted = no
			any_neighbor_country = {
				religion = orthodox
				total_base_tax = ROOT
				military_strength = { who = ROOT value = 2 }
				any_owned_province = {
					any_neighbor_province = {
						owned_by = ROOT
						is_in_capital_area = yes
					}
				}
			}
			NOT = {
				any_neighbor_country = {
					religion = ROOT
					OR = {
						total_base_tax = ROOT
						military_strength = { who = ROOT value = 1 }
					}
				}
			}
		}
		allow = {
			NOT = { government = theocracy }
			OR = {
				AND = {
					capital_scope = { western_europe_trigger = yes }
					orthodox_rome_trigger = yes
				}
				AND = {
					capital_scope = { continent = europe NOT = { western_europe_trigger = yes } }
					orthodox_constantinople_trigger = yes
				}
				AND = {
					capital_scope = { africa_continent_trigger = yes }
					358 = { owner = { religion = orthodox } }
				}
				AND = {
					capital_scope = { asia_continent_trigger = yes }
					382 = { owner = { religion = orthodox } }
				}
				overlord = {
					religion = orthodox
					any_owned_province = { has_province_modifier = orthodox_patriarchate }
				}
			}
			has_regency = no
			is_at_war = no
			NOT = { patriarch_authority = 0.80 }
			NOT = { piety = 0.60 }
			OR = {
				is_free_or_tributary_trigger = yes
				overlord = { religion = orthodox }
			}
		}
		effect = {
			if = {
				limit = {
					NOT = { num_of_religion = { religion = orthodox value = 0.25 } }
				}
				custom_tooltip = convert_population_0
				subtract_stability_3 = yes
			}
			if = {
				limit = {
					num_of_religion = { religion = orthodox value = 0.25 }
					NOT = { dominant_religion = orthodox }
				}
				custom_tooltip = convert_population_25
				subtract_stability_2 = yes
			}
			if = {
				limit = {
					dominant_religion = orthodox
					NOT = { num_of_religion = { religion = orthodox value = 0.75 } }
				}
				custom_tooltip = convert_population_50
				subtract_stability_1 = yes
			}
			if = {
				limit = {
					dominant_religion = orthodox
					num_of_religion = { religion = orthodox value = 0.75 }
				}
				custom_tooltip = convert_population_75
			}
			if = {
				limit = { patriarch_authority = 0.75 }
				custom_tooltip = convert_church_strong
				subtract_stability_3 = yes
			}
			if = {
				limit = {
					patriarch_authority = 0.50
					NOT = { patriarch_authority = 0.75 }
				}
				custom_tooltip = convert_piety_moderate
				subtract_stability_2 = yes
			}
			if = {
				limit = {
					patriarch_authority = 0.25
					NOT = { patriarch_authority = 0.50 }
				}
				custom_tooltip = convert_church_weak
				subtract_stability_1 = yes
			}
			if = {
				limit = { NOT = { patriarch_authority = 0.25 } }
				custom_tooltip = convert_church_insignificant
			}
			if = {
				limit = {
					NOT = { capital_scope = { religion = orthodox } }
					NOT = { ADM = 3 }
				}
				custom_tooltip = convert_ruler_incompetent
			}
			if = {
				limit = {
					capital_scope = { religion = orthodox }
					NOT = { ADM = 3 }
				}
				custom_tooltip = convert_ruler_weak
				add_stability_1 = yes
			}
			if = {
				limit = {
					NOT = { capital_scope = { religion = orthodox } }
					ADM = 3
					NOT = { ADM = 5 }
				}
				custom_tooltip = convert_ruler_weak
				add_stability_1 = yes
			}
			if = {
				limit = {
					capital_scope = { religion = orthodox }
					ADM = 3
					NOT = { ADM = 5 }
				}
				custom_tooltip = convert_ruler_moderate
				add_stability_2 = yes
			}
			if = {
				limit = {
					NOT = { capital_scope = { religion = orthodox } }
					ADM = 5
				}
				custom_tooltip = convert_ruler_moderate
				add_stability_2 = yes
			}
			if = {
				limit = {
					capital_scope = { religion = orthodox }
					ADM = 5
				}
				custom_tooltip = convert_ruler_strong
				add_stability_3 = yes
			}
			if = {
				limit = { advisor = theologian }
				custom_tooltip = convert_theologian
				add_stability_1 = yes
			}
			if = {
				limit = {
					NOT = { has_country_flag = was_catholic }
					check_variable = { which = sympathy_to_old_religion value = 1 }
				}
				custom_tooltip = convert_recent
				add_stability_1 = yes
			}
			if = {
				limit = {
					has_country_flag = was_catholic
					NOT = { check_variable = { which = sympathy_to_old_religion value = 1 } }
				}
				custom_tooltip = convert_previous_old
				add_stability_1 = yes
			}
			if = {
				limit = {
					has_country_flag = was_catholic
					check_variable = { which = sympathy_to_old_religion value = 1 }
				}
				custom_tooltip = convert_previous_recent
				add_stability_2 = yes
			}
			change_religion = orthodox
		}
		ai_will_do = {
			factor = 1
			modifier = {
				religion = catholic
				PAP = { check_variable = { which = papal_authority value = 400 } }
				NOT = { overlord = { religion = orthodox } }
				factor = 0
			}
			modifier = {
				NOT = {
					OR = {
						has_country_flag = excommunicated
						has_country_flag = enemy_of_pope
						num_of_religion = { religion = orthodox value = 0.20 }
						has_country_flag = was_orthodox
						any_province = {
							province_rome_trigger = yes
							owner = { religion = orthodox }
						}
					}
				}
				factor = 0
			}
			modifier = {
				num_of_cardinals = 1
				factor = 0
			}
			modifier = {
				is_papal_controller = yes
				factor = 0
			}
		}
	}
	heal_the_schism_pentarchy = {
		major = yes
		potential = {
			religion = orthodox
			OR = {
				antioch_patriarch_area = {
					has_province_flag = orthodox_patriarch_of_antioch
					OR = { owned_by = ROOT owner = { is_subject_of = ROOT } }
				}
				alexandria_patriarch_area = {
					has_province_flag = orthodox_patriarch_of_alexandria
					OR = { owned_by = ROOT owner = { is_subject_of = ROOT } }
				}
				constantinople_patriarch_area = {
					has_province_flag = orthodox_patriarch_of_constantinople
					OR = { owned_by = ROOT owner = { is_subject_of = ROOT } }
				}
				jerusalem_patriarch_area = {
					has_province_flag = orthodox_patriarch_of_jerusalem
					OR = { owned_by = ROOT owner = { is_subject_of = ROOT } }
				}
				rome_patriarch_area = {
					has_province_flag = orthodox_patriarch_of_rome
					OR = { owned_by = ROOT owner = { is_subject_of = ROOT } }
				}
			}
			NOT = { has_global_flag = orthodox_pentarchy_restored }
		}
		allow = {
			antioch_patriarch_area = {
				has_province_flag = orthodox_patriarch_of_antioch
				OR = { owned_by = ROOT owner = { is_subject_of = ROOT } }
			}
			alexandria_patriarch_area = {
				has_province_flag = orthodox_patriarch_of_alexandria
				OR = { owned_by = ROOT owner = { is_subject_of = ROOT } }
			}
			constantinople_patriarch_area = {
				has_province_flag = orthodox_patriarch_of_constantinople
				OR = { owned_by = ROOT owner = { is_subject_of = ROOT } }
			}
			jerusalem_patriarch_area = {
				has_province_flag = orthodox_patriarch_of_jerusalem
				OR = { owned_by = ROOT owner = { is_subject_of = ROOT } }
			}
			rome_patriarch_area = {
				has_province_flag = orthodox_patriarch_of_rome
				OR = { owned_by = ROOT owner = { is_subject_of = ROOT } }
			}
		}
		effect = {
			set_global_flag = orthodox_pentarchy_restored
			if = {
				limit = { piety = 0.60 }
				add_prestige = 10
			}
			if = {
				limit = { piety = 0.20 NOT = { piety = 0.60 } }
				add_prestige = 8
			}
			if = {
				limit = { piety = -0.20 NOT = { piety = 0.20 } }
				add_prestige = 6
			}
			if = {
				limit = { piety = -0.60 NOT = { piety = -0.20 } }
				add_prestige = 4
			}
			if = {
				limit = { NOT = { piety = -0.60 } }
				add_prestige = 2
			}
			every_known_country = {
				limit = {
					religion = catholic
					OR = {
						is_free_or_tributary_trigger = yes
						overlord = { religion = ROOT }
					}
					is_force_converted = no
				}
				country_event = { id = dg_orthodox.046 days = 30 random = 100 }
			}
		}
		ai_will_do = { factor = 1 }
	}
	
}