country_decisions = {
	
	found_hall_of_worthies = {
		potential = {
			primary_culture = korean
			owns = 735 # Yanggwang
			NOT = { has_country_flag = hall_of_worthies }
			religion = confucianism
		}
		allow = {
			OR = {
				advisor = philosopher
				advisor = natural_scientist
				advisor = theologian
				adm = 4
			}
			treasury = 50
			adm_power = 30
		}
		effect = {
			add_prestige = 30
			add_treasury = -50
			add_adm_power = -30
			set_country_flag = hall_of_worthies
		}
		ai_will_do = {
			factor = 1
		}
	}
	build_gyeongbok = {
		major = yes
		potential = {
			tag = JOS
			NOT = {
				has_country_flag = gyeongbok_build
			}
		}
		allow = {
			is_at_war = no
			is_free_or_tributary_trigger = yes
			treasury = 300
			adm_power = 30
			OR = {
				advisor = architect
				adm = 4
			}
		}
		effect = {
			capital_scope = {
				if = {
					limit = {
						NOT = { has_building = bureaucracy_1 }
						NOT = { has_building = bureaucracy_2 }
						NOT = { has_building = bureaucracy_3 }
						NOT = { has_building = bureaucracy_4 }
						NOT = { has_building = bureaucracy_5 }
					}
					add_building = bureaucracy_1
				}
			}
			add_treasury = -300
			add_prestige = 10
			set_country_flag = gyeongbok_build
		}
		ai_will_do = {
			factor = 1
		}
	}
	form_goryeo = {
		major = yes
		potential = {
			tag = CSE
			dynasty = "Wang"
			KOR = { exists = no }
			NOT = { has_country_flag = mandate_of_heaven_claimed }
		}
		allow = {
			is_at_war = no
			is_free_or_tributary_trigger = yes
			has_regency = no
			num_of_owned_provinces_with = {
				region = korea_region
				is_core = ROOT
				value = 12
			}
		}
		effect = {
			add_prestige = 10
			change_tag = KOR
			swap_free_idea_group = yes
		}
		ai_will_do = {
			factor = 1
		}
		ai_importance = 400
	}
}
