# Alaska
colonial_alaska = {
	color = { 225 225 225 }
	
	# Random New World
	tax_income = 0
	native_size = 8
	native_ferocity = 1
	native_hostileness = 4
	
	trade_goods = {
		fur = 10
		fish = 3
		# naval_supplies = 2
		gold = 2
	}
	
	culture = {
		yupik = 10
		tlingit = 8
	}
	
	religion = {
		shamanism = 10
		totemism = 8
	}
	
	provinces = {
		873 874 972 975 978 979 1530 2185 2186 2188 2189 2190 2191 2192 2193 2194 3667 2469 3668 3669 3670 3671 3672 3674 3677 
		
	}
	
	# Specific
	names = {
		trigger = {
			primary_culture = russian
		}
		name = "COLONIAL_ALASKA_Alyeska"
	}
	names = {
		trigger = {
			OR = {
				tag = SPA
				tag = CAS
				tag = ARA
			}
		}
		name = "COLONIAL_ALASKA_Pacifico_Norte"
	}
	names = {
		trigger = {
			OR = {
				tag = ENG
				tag = SCO
				tag = GBR
			}
		}
		name = "COLONIAL_OREGON_Root_GetName_Columbia"
	}
	names = {
		trigger = {
			owns = 979 # Chugash
		}
		name = "COLONIAL_ALASKA_Aleutia"
	}
	names = {
		trigger = {
			owns = 2185 # Klallam
		}
		name = "COLONIAL_OREGON_Oregon"
	}
	# Generic
	names = {
		name = "COLONIAL_ALASKA_Root_GetName_Alaska"
	}
	names = {
		name = "COLONIAL_REGION_New_Root_GetName"
	}
}

# Canada
colonial_canada = {
	color = { 137 21 41 }
	
	# Random New World
	tax_income = 1
	native_size = 4
	native_ferocity = 1
	native_hostileness = 4
	
	trade_goods = {
		fur = 20
		fish = 10
		# naval_supplies = 3
		wheat = 1
	}
	
	culture = {
		inuit = 6
		innu = 5
		cree = 10
		huron = 7
		iroquois = 5
		mahican = 2
		miqmaq = 4
		abenaki = 4
	}
	
	religion = {
		shamanism = 6
		totemism = 12
	}
	
	provinces = {
		890 906 908 909 910 946 980 981 982 983 984 985 987 988 989 990 991 992 993 994 996 998 
		1000 1001 1002 1003 1004 1005 1007 1008 1010 1011 1489 1517 2161 2168 2169 2180 
		2182 2183 2196 2198 971 1104 1336 2479 2481 2482 3632 3633 3634 3635 3636 3637 3638 
		3640 3641 3642 3643 3644 3645 3646 3647 3648 3649 3650 3651 3652 3653 3655 3656 3658 3659 
		3660 3661 3662 3663 3664 3665 3695 3578 911 3666 
	}
	
	# Specific
	names = {
		trigger = {
			OR = {
				tag = FRA
				culture_group = langue_d_oil
				culture_group = langue_d_oc
			}
			# owns = 993
		}
		name = "COLONIAL_CANADA_Quebec"
	}
	names = {
		trigger = {
			OR = {
				tag = FRA
				culture_group = langue_d_oil
				culture_group = langue_d_oc
			}
			owns = 981 # Beothuk
		}
		name = "COLONIAL_CANADA_Terre_Neuve"
	}
	names = {
		trigger = {
			OR = {
				tag = GBR
				tag = ENG
			}
		}
		name = "COLONIAL_CANADA_Canada"
	}
	names = {
		trigger = {
			OR = {
				tag = GBR
				tag = ENG
			}
		}
		name = "COLONIAL_CANADA_Hudson_Bay"
	}
	names = {
		trigger = {
			OR = {
				tag = NED
				tag = HOL
				OR = {
					primary_culture = dutch
					primary_culture = flemish
					primary_culture = brabantian
				}
			}
		}
		name = "COLONIAL_CANADA_Nova_Hollandia"
	}
	names = {
		trigger = {
			OR = {
				tag = NED
				tag = HOL
				OR = {
					primary_culture = dutch
					primary_culture = flemish
					primary_culture = brabantian
				}
			}
		}
		name = "COLONIAL_CANADA_Nova_Flandria"
	}
	names = {
		trigger = {
			tag = BRU
		}
		name = "COLONIAL_CANADA_Neu_Braunschweig"
	}
	names = {
		trigger = {
			OR = {
				tag = GBR
				tag = ENG
			}
		}
		name = "COLONIAL_CANADA_Newfoundland"
	}
	names = {
		trigger = {
			OR = {
				tag = GBR
				tag = ENG
			}
			SCO = {
				exists = no
			}
			any_owned_province = {
				region = scotland_region
			}
		}
		name = "COLONIAL_CANADA_Nova_Scotia"
	}
	names = {
		trigger = {
			tag = SCO
		}
		name = "COLONIAL_CANADA_Nova_Scotia"
	}
	names = {
		trigger = {
			culture_group = nord_germanic
		}
		name = "COLONIAL_CANADA_Vinland"
	}
	# Generic
	names = {
		name = "COLONIAL_CANADA_Root_GetName_Canada"
	}
	names = {
		name = "COLONIAL_REGION_New_Root_GetName"
	}
}

# Eastern America
colonial_eastern_america = {
	color = { 69 157 208 }
	
	# Random New World
	tax_income = 2
	native_size = 8
	native_ferocity = 2
	native_hostileness = 5
	
	trade_goods = {
		fur = 15
		fish = 3
		# naval_supplies = 4
		maize = 4
		tobacco = 8
		cotton = 10
		sugar = 1
	}
	
	culture = {
		shawnee = 5
		lenape = 5
		powhatan = 2
		creek = 5
		cherokee = 5
		iroquois = 5
		mahican = 2
		miqmaq = 2
		abenaki = 3
	}
	
	religion = {
		totemism = 10
	}
	
	provinces = {
		939 963 964 965 966 967 969 986 2177 970 1458 2179 968 940 2671 955 959 960 
		1459 1452 962 997 2197
		3619 3620 3621 3622 3623 3624 3625 3626 3627 3628 3629 
		3630 3631 3691
	}
	
	# Specific
	names = {
		trigger = {
			OR = {
				tag = GBR
				tag = ENG
			}
		}
		name = "COLONIAL_EASTERN_AMERICA_Thirteen_Colonies"
	}
	names = {
		trigger = {
			OR = {
				tag = FRA
				culture_group = langue_d_oil
				culture_group = langue_d_oc
			}
		}
		name = "COLONIAL_EASTERN_AMERICA_Nouvelle_France"
	}
	names = {
		trigger = {
			OR = {
				tag = FRA
				culture_group = langue_d_oil
				culture_group = langue_d_oc
			}
			owns = 90 # Vlaanderen
		}
		name = "COLONIAL_EASTERN_AMERICA_Nouvelle_Flandre"
	}
	names = {
		trigger = {
			OR = {
				tag = FRA
				culture_group = langue_d_oil
				culture_group = langue_d_oc
			}
			OR = {
				owns = 926 # Tequesta
				owns = 927 # Timucua
			}
		}
		name = "COLONIAL_EASTERN_AMERICA_Floride"
	}
	names = {
		trigger = {
			OR = {
				tag = SPA
				tag = CAS
				tag = ARA
			}
			OR = {
				owns = 926 # Tequesta
				owns = 927 # Timucua
			}
		}
		name = "COLONIAL_EASTERN_AMERICA_Florida"
	}
	# Generic
	names = {
		name = "COLONIAL_REGION_New_Root_GetName"
	}
	names = {
		name = "COLONIAL_EASTERN_AMERICA_Florida"
	}
	names = {
		trigger = {
			owns = 967 # Shawmut
		}
		name = "COLONIAL_EASTERN_AMERICA_Massachusets"
	}
	names = {
		trigger = {
			owns = 966 # Matabesic
		}
		name = "COLONIAL_EASTERN_AMERICA_Connecticut"
	}
	names = {
		trigger = {
			owns = 965 # Metoac
		}
		name = "COLONIAL_EASTERN_AMERICA_Manhattan"
	}
	names = {
		trigger = {
			owns = 961 # Sewpois
		}
		name = "COLONIAL_EASTERN_AMERICA_Delaware"
	}
	names = {
		trigger = {
			owns = 2181 # Albaamaha
		}
		name = "COLONIAL_EASTERN_AMERICA_Alabama"
	}
	names = {
		trigger = {
			owns = 950 # Occaneeshi
		}
		name = "COLONIAL_EASTERN_AMERICA_Virginia"
	}
	names = {
		trigger = {
			OR = {
				owns = 938 # Enok
				owns = 1451 # Neusiok
			}
		}
		name = "COLONIAL_EASTERN_AMERICA_Carolina"
	}
}
# American Southeast
colonial_southeastern_america = {
	color = { 49 177 208 }
	
	# Random New World
	tax_income = 2
	native_size = 8
	native_ferocity = 2
	native_hostileness = 5
	
	trade_goods = {
		fish = 3
		# naval_supplies = 4
		maize = 4
		tobacco = 8
		cotton = 10
		sugar = 1
	}
	
	culture = {
		shawnee = 5
		lenape = 5
		powhatan = 2
		creek = 5
		cherokee = 5
		iroquois = 5
		mahican = 2
		miqmaq = 2
		abenaki = 3
	}
	
	religion = {
		totemism = 10
	}
	
	provinces = {
		2178 961 916 904 954 953 950 952 930 931 932 933 1453 936 938 1451 2175 2176 3596 3599 3600 3603 3604 3605 3606 3607 3608 3609 3610 3611 3612 3614 3616 923 3613 3615 926 3597 3696 927 3598 929 1456 2174 3594 3593 1697 3592 2181 3595 3602 3601 3591 925 3589 3590 924 922 3588 935 1454 3587 942
	}
	
	# Specific
	
	# Generic
	names = {
		name = "COLONIAL_REGION_New_Root_GetName"
	}
}

# Colonial Great Lakes
colonial_great_lakes = {
	color = { 99 167 248 }
	
	# Random New World
	tax_income = 2
	native_size = 8
	native_ferocity = 2
	native_hostileness = 5
	
	trade_goods = {
		fur = 15
		maize = 4
		wheat = 1
	}
	
	culture = {
		shawnee = 5
		lenape = 5
		powhatan = 2
		creek = 5
		cherokee = 5
		iroquois = 5
		mahican = 2
		miqmaq = 2
		abenaki = 3
	}
	
	religion = {
		totemism = 10
	}
	
	provinces = {
		949 3585 951 3586 3618 3617 956 2785 3584 945 3582 1462 920 958 944 1493 941 943 937 3581 957 947 3580 3579 948 3583 
	}
	
	# Specific
	
	# Generic
	names = {
		name = "COLONIAL_REGION_New_Root_GetName"
	}
}

# Louisiana
colonial_louisiana = {
	color = { 33 87 161 }
	
	# Random New World
	tax_income = 1
	native_size = 18
	native_ferocity = 2
	native_hostileness = 6
	
	trade_goods = {
		fur = 10
		fish = 1
		maize = 11
		cotton = 7
		iron = 1
	}
	
	culture = {
		caddo = 6
		creek = 3
		pawnee = 6
		lakota = 6
		dakota = 6
		ojibwa = 5
		cherokee = 3
		apache = 3
	}
	
	religion = {
		totemism = 20
	}
	
	provinces = {
		928 1455 921 3554 2173 1457 3555 3556 3557 3560 3558 900 3559 899 3562 3563 934 3565 3564 3561 898 918 1494 901 3566 903 3567 3577
		917 915 914 913 2172 912 2171 3576 3574 902 1460 3568 3575 3573 905 2195 3572 3571 3569 3570 894 895
	}
	
	# Specific
	names = {
		trigger = {
			OR = {
				tag = FRA
				culture_group = langue_d_oil
				culture_group = langue_d_oc
			}
		}
		name = "COLONIAL_LOUISIANA_Louisiane"
	}
	names = {
		trigger = {
			OR = {
				tag = CAS
				tag = SPA
				tag = LEO
			}
		}
		name = "COLONIAL_LOUISIANA_Idefonsina"
	}
	names = {
		trigger = {
			OR = {
				tag = ARA
				tag = BLE
				tag = CAT
			}
		}
		name = "COLONIAL_LOUISIANA_Ferrandina"
	}
	names = {
		trigger = {
			OR = {
				tag = POR
				tag = GAL
			}
		}
		name = "COLONIAL_LOUISIANA_Henricea"
	}
	names = {
		trigger = {
			OR = {
				tag = FRA
				culture_group = langue_d_oil
				culture_group = langue_d_oc
			}
		}
		name = "COLONIAL_LOUISIANA_Manitounie"
	}
	names = {
		trigger = {
			OR = {
				owns = 915 # Illinois
				owns = 916 # Kaskaskia
				owns = 917 # Cahokia
			}
		}
		name = "COLONIAL_LOUISIANA_Illinois"
	}
	# Generic
	names = {
		name = "COLONIAL_LOUISIANA_Root_GetName_Louisiana"
	}
	names = {
		name = "COLONIAL_REGION_New_Root_GetName"
	}
	names = {
		name = "COLONIAL_LOUISIANA_Mississippi"
	}
	names = {
		name = "COLONIAL_LOUISIANA_Manitounie"
	}
	names = {
		trigger = {
			OR = {
				owns = 951 # Waayaahtanwa
				owns = 958 # Myaamia
			}
		}
		name = "COLONIAL_LOUISIANA_Ohio"
	}
#	names = {
#		trigger = {
#			OR = {
#				owns = 915 # Illinois
#				owns = 916 # Kaskaskia
#				owns = 917 # Cahokia
#			}
#		}
#		name = "PROV915"
#	}
#	names = {
#		trigger = {
#			OR = {
#				owns = 900 # Tamaroa
#				owns = 902 # Missouri
#			}
#		}
#		name = "PROV902"
#	}
	names = {
		trigger = {
			owns = 920 # Quapaw
		}
		name = "COLONIAL_LOUISIANA_Arkansas"
	}
#	names = {
#		trigger = {
#			OR = {
#				owns = 945 # Michigan
#				owns = 944 # Potawatomi
#			}
#		}
#		name = "PROV945"
#	}
	names = {
		trigger = {
			OR = {
				owns = 911 # Onigamiinsing
				owns = 912 # Sauk
				owns = 913 # Fox
				owns = 914 # Winnebago
			}
		}
		name = "COLONIAL_LOUISIANA_Wisconsin"
	}
#	names = {
#		trigger = {
#			owns = 905 # Iowa
#		}
#		name = "PROV905"
#	}
#	names = {
#		trigger = {
#			owns = 908 # Minnesota
#		}
#		name = "PROV908"
#	}
#	names = {
#		trigger = {
#			owns = 898 # Kansas
#		}
#		name = "PROV898"
#	}
	names = {
		trigger = {
			OR = {
				owns = 903 # Omaha
				owns = 901 # Pawnee
			}
		}
		name = "COLONIAL_LOUISIANA_Nebraska"
	}
#	names = {
#		trigger = {
#			OR = {
#				owns = 906 # Yankton
#				owns = 907 # Dakota
#			}
#		}
#		name = "PROV907"
#	}
}

# California
colonial_california = {
	color = { 200 117 43 }
	
	# Random New World
	tax_income = 1
	native_size = 8
	native_ferocity = 1
	native_hostileness = 3
	
	trade_goods = {
		fur = 4
		maize = 3
		salt = 1
		wool = 2
	}
	
	culture = {
		shoshone = 10
		hopi = 5
		tlingit = 3
		navajo = 2
	}
	
	religion = {
		totemism = 4
	}
	
	provinces = {
		865 866 867 868 869 870 871 872 876 878 1466 1733 1735 1821 1823 1824 2167 2184 2199 3676 3675
		1465 1464 3688 3687 3685 3690 3684 3683 3682 3681 3680 3679 3678 3689 
	}
	
	# Specific
	names = {
		trigger = {
			OR = {
				tag = GBR
				tag = ENG
			}
			culture_group = british
		}
		name = "COLONIAL_CALIFORNIA_New_Albion"
	}
	names = {
		trigger = {
			OR = {
				tag = FRA
				culture_group = langue_d_oil
				culture_group = langue_d_oc
			}
		}
		name = "COLONIAL_CALIFORNIA_Californie"
	}
	# Generic
	names = {
		name = "COLONIAL_CALIFORNIA_Root_GetName_California"
	}
	names = {
		name = "COLONIAL_REGION_New_Root_GetName"
	}
	names = {
		name = "COLONIAL_CALIFORNIA_Cascadia"
	}
}

# Taxas y Santa Fe de Nueva Mexico
colonial_texas = {
	color = { 67 213 53 }
	
	# Random New World
	tax_income = 1
	native_size = 8
	native_ferocity = 1
	native_hostileness = 3
	
	trade_goods = {
		fur = 4
		maize = 3
		salt = 1
		wool = 2
	}
	
	culture = {
		apache = 10
		comanche = 8
		navajo = 3
	}
	
	religion = {
		totemism = 4
	}
	
	provinces = {
		858 1418 3552 892 3553 3551 3547 863 888 884 1419 1663 897 1461 3548 885 887 3549 886 893 919 896 3550 
	}
	
	# Specific
	names = {
		trigger = {
			OR = {
				tag = GBR
				tag = ENG
			}
			culture_group = british
		}
		name = "COLONIAL_TEXAS_Texas"
	}
	names = {
		trigger = {
			culture_group = iberian
		}
		name = "COLONIAL_TEXAS_Teyas"
	}
	# Generic
	names = {
		name = "COLONIAL_CALIFORNIA_Root_GetName_Texas"
	}
	names = {
		name = "COLONIAL_REGION_New_Root_GetName"
	}
}
